{
    "_id": "zJxUflt9np0q4yML",
    "data": {
        "active": true,
        "alsoApplies": {
            "linked": [],
            "unlinked": []
        },
        "base": "Invisible",
        "description": {
            "value": "<p>While invisible, you can't be seen. You're @Compendium[pf2e.conditionitems.Undetected]{Undetected} to everyone. Creatures can @Compendium[pf2e.actionspf2e.Seek]{Seek} to attempt to detect you; if a creature succeeds at its Perception check against your Stealth DC, you become @Compendium[pf2e.conditionitems.Hidden]{Hidden} to that creature until you @Compendium[pf2e.actionspf2e.Sneak]{Sneak} to become undetected again. If you become invisible while someone can already see you, you start out hidden to the observer (instead of undetected) until you successfully sneak. You can't become @Compendium[pf2e.conditionitems.Observed]{Observed} while invisible except via special abilities or magic.</p>"
        },
        "duration": {
            "perpetual": true,
            "text": "",
            "value": 0
        },
        "group": "senses",
        "hud": {
            "img": {
                "useStatusName": true,
                "value": "systems/pf2e/icons/conditions-2/invisible.webp"
            },
            "selectable": true,
            "statusName": "invisible"
        },
        "modifiers": [],
        "overrides": [],
        "references": {
            "children": [],
            "immunityFrom": [],
            "overriddenBy": [],
            "overrides": []
        },
        "removable": true,
        "rules": [],
        "source": {
            "value": ""
        },
        "sources": {
            "hud": true
        },
        "traits": {
            "custom": "",
            "rarity": "common",
            "value": []
        },
        "value": {
            "immutable": false,
            "isValued": false,
            "modifiers": [],
            "value": null
        }
    },
    "effects": [],
    "flags": {
        "pf2e": {
            "condition": true
        }
    },
    "img": "systems/pf2e/icons/conditions/invisible.webp",
    "name": "Invisible",
    "type": "condition"
}
