{
    "_id": "VnrGXdVthTceOlXV",
    "content": "<p>Randomly determine another common ancestry; you grew up surrounded by that ancestry. Reroll on this table (with a modifier for the new ancestry, if applicable) to determine the type of community in which you grew up (for example, if your gnome grew up among dwarves and rolls a 3, they grew up underground).</p>\n<p>Add the @Compendium[pf2e.feats-srd.Adopted Ancestry]{Adopted Ancestry} feat and the Lore skill related to your adopted ancestry (such as Dwarf Lore) to your background options. If you select this feat instead of a skill feat, you aren't trained in a background skill.</p>",
    "flags": {},
    "name": "Another Ancestry's Settlement",
    "permission": {
        "default": 0
    }
}
