{
    "_id": "xKEQvxDMHWRUkL6i",
    "data": {
        "boosts": {
            "0": {
                "value": [
                    "dex",
                    "int"
                ]
            },
            "1": {
                "value": [
                    "cha",
                    "con",
                    "dex",
                    "int",
                    "str",
                    "wis"
                ]
            }
        },
        "description": {
            "value": "<p>New forms of clockwork technology are incredibly interesting to you, and you've been studying examples of them to see where else they might be best put to use. You might eventually develop a new prototype machine or find a way to make related technologies practical enough for everyone to benefit. Though before you do, you must continue your research!</p>\n<p>Choose two ability boosts. One must be to <strong>Dexterity</strong> or <strong>Intelligence</strong>, and one is a free ability boost.</p>\n<p>You're trained in the Society skill and the Engineering Lore skill. You gain the @Compendium[pf2e.feats-srd.Eye For Numbers]{Eye For Numbers} skill feat.</p>"
        },
        "items": {
            "hp61b": {
                "id": "0N8TtGSk5enoLBZ8",
                "img": "systems/pf2e/icons/features/feats/feats.webp",
                "level": 1,
                "name": "Eye For Numbers",
                "pack": "pf2e.feats-srd"
            }
        },
        "rules": [],
        "source": {
            "value": "Pathfinder Guns & Gears"
        },
        "trainedLore": "Engineering",
        "trainedSkills": {
            "custom": "",
            "value": [
                "soc"
            ]
        },
        "traits": {
            "custom": "",
            "rarity": "common",
            "value": []
        }
    },
    "effects": [],
    "flags": {},
    "img": "systems/pf2e/icons/default-icons/background.svg",
    "name": "Clockwork Researcher",
    "type": "background"
}
