{
    "_id": "tQ9t7uIssRCR2y3W",
    "data": {
        "boosts": {
            "0": {
                "value": [
                    "cha",
                    "wis"
                ]
            },
            "1": {
                "value": [
                    "cha",
                    "con",
                    "dex",
                    "int",
                    "str",
                    "wis"
                ]
            }
        },
        "description": {
            "value": "<p><strong>Prerequisite</strong> Region - Shining Kingdoms</p>\n<hr />\n<p>You fell prey to the whims of the Galtan mob and were scheduled for execution by <em>@Compendium[pf2e.equipment-srd.Final Blade]{Final Blade}</em>, but through skill-or sheer luck-you managed to talk your way out of it.</p>\n<p>Choose two ability boosts. One must be to <strong>Charisma</strong> or <strong>Wisdom</strong>, and one is a free ability boost.</p>\n<p>You're trained in the Deception skill and the Revolution Lore skill. You gain the @Compendium[pf2e.feats-srd.Charming Liar]{Charming Liar} skill feat.</p>"
        },
        "items": {
            "rv7pf": {
                "id": "B6HbYsLBWb1RR6Fx",
                "img": "systems/pf2e/icons/features/feats/feats.webp",
                "level": "1",
                "name": "Charming Liar",
                "pack": "pf2e.feats-srd"
            }
        },
        "rules": [],
        "source": {
            "value": "Pathfinder Lost Omens: World Guide"
        },
        "trainedLore": "Revolution Lore",
        "trainedSkills": {
            "value": [
                "dec"
            ]
        },
        "traits": {
            "custom": "",
            "rarity": "common",
            "value": []
        }
    },
    "effects": [],
    "flags": {},
    "img": "systems/pf2e/icons/default-icons/background.svg",
    "name": "Final Blade Survivor",
    "type": "background"
}
