{
    "_id": "HSNUDvPgO1NESW7S",
    "data": {
        "boosts": {
            "0": {
                "value": [
                    "dex",
                    "int"
                ]
            },
            "1": {
                "value": [
                    "cha",
                    "con",
                    "dex",
                    "int",
                    "str",
                    "wis"
                ]
            }
        },
        "description": {
            "value": "<p>You live by the adage that one person's trash is another's treasure. Whether by sifting through scrap heaps or digging up old battlefields, you remain on the lookout for lost or discarded objects that you might be able to turn into something useful. More often than not, what you find is just junk... but you're convinced that one of these days, you're going to hit the jackpot. You've even taken up adventuring as a means to supercharge your access to all sorts of junk, gear, and loot.</p>\n<p>Choose two ability boosts. One must be to <strong>Dexterity</strong> or <strong>Intelligence</strong>, and one is a free ability boost.</p>\n<p>You're trained in the Crafting skill and your choice of either the Engineering Lore or Mining Lore skill. You gain the @Compendium[pf2e.feats-srd.Crafter's Appraisal]{Crafter's Appraisal} skill feat.</p>"
        },
        "items": {
            "osb2w": {
                "id": "voYr7ygVcWmlg1f4",
                "img": "systems/pf2e/icons/features/feats/feats.webp",
                "level": 1,
                "name": "Crafter's Appraisal",
                "pack": "pf2e.feats-srd"
            }
        },
        "rules": [],
        "source": {
            "value": ""
        },
        "trainedLore": "Engineering or Mining",
        "trainedSkills": {
            "custom": "",
            "value": [
                "cra"
            ]
        },
        "traits": {
            "custom": "",
            "rarity": "common",
            "value": []
        }
    },
    "effects": [],
    "flags": {},
    "img": "systems/pf2e/icons/default-icons/background.svg",
    "name": "Junk Collector",
    "type": "background"
}
