{
    "_id": "uC6D2nmDTATxXrV6",
    "data": {
        "boosts": {
            "0": {
                "value": [
                    "cha",
                    "int"
                ]
            },
            "1": {
                "value": [
                    "cha",
                    "con",
                    "dex",
                    "int",
                    "str",
                    "wis"
                ]
            }
        },
        "description": {
            "value": "<p>You are a prominent member of a royal family. You have taken up the life of an adventurer-perhaps you're a deposed queen hoping to regain her throne, a prince seeking a more exciting life, or a princess on a secret mission.</p>\n<p>Choose two ability boosts. One must be to <strong>Intelligence</strong> or <strong>Charisma</strong>, and one is a free ability boost.</p>\n<p>You are trained in Society. You gain the @Compendium[pf2e.feats-srd.Courtly Graces]{Courtly Graces} skill feat and can influence commoners in your family's territory, as well as nobility anywhere. If you later gain the @Compendium[pf2e.feats-srd.Connections]{Connections} skill feat, you automatically have common and noble connections within any community in your royal family's territory and have noble connections in large communities outside your territory.</p>"
        },
        "items": {
            "zslzu": {
                "id": "JtjnFsOToBLnSRO9",
                "img": "systems/pf2e/icons/features/feats/feats.webp",
                "level": "1",
                "name": "Courtly Graces",
                "pack": "pf2e.feats-srd"
            }
        },
        "rules": [],
        "source": {
            "value": "Pathfinder Advanced Player's Guide"
        },
        "trainedLore": "",
        "trainedSkills": {
            "value": [
                "soc"
            ]
        },
        "traits": {
            "custom": "",
            "rarity": "rare",
            "value": []
        }
    },
    "effects": [],
    "flags": {},
    "img": "systems/pf2e/icons/default-icons/background.svg",
    "name": "Royalty",
    "type": "background"
}
