{
    "_id": "ClfUJ4AtaxglVGvs",
    "data": {
        "baseItem": null,
        "brokenThreshold": {
            "value": 0
        },
        "bulkCapacity": {
            "value": ""
        },
        "collapsed": {
            "value": false
        },
        "containerId": {
            "value": null
        },
        "description": {
            "value": "<p>Originally developed as a body modification by oreads, <em>fleshgems</em> are crystals that can be implanted in the skin of a creature of any ancestry. While a <em>fleshgem</em> can be applied anywhere on the body for cosmetic purposes, the most common usage among adventurers is to implant them at the base of the fingers, to be used like brass knuckles.</p>\n<p>These pointed crystal shards embedded in your fingers grant you a fist Strike that deals [[/r {1d6}[piercing]]]{1d6 piercing damage}, is in the brawling group, and has the magical and unarmed traits. Combat fleshgems can be enhanced with the effects of <em>handwraps of mighty blows</em>, as normal for an unarmed attack.</p>"
        },
        "equipped": {
            "value": false
        },
        "equippedBulk": {
            "value": ""
        },
        "hardness": {
            "value": 0
        },
        "hp": {
            "value": 0
        },
        "identification": {
            "misidentified": {},
            "status": "identified",
            "unidentified": {
                "data": {
                    "description": {
                        "value": ""
                    }
                },
                "img": "",
                "name": ""
            }
        },
        "invested": {
            "value": null
        },
        "level": {
            "value": 5
        },
        "maxHp": {
            "value": 0
        },
        "negateBulk": {
            "value": "0"
        },
        "preciousMaterial": {
            "value": null
        },
        "preciousMaterialGrade": {
            "value": null
        },
        "price": {
            "value": "160 gp"
        },
        "quantity": {
            "value": 1
        },
        "rules": [
            {
                "acuity": "melee",
                "category": "unarmed",
                "damage": {
                    "base": {
                        "damageType": "piercing",
                        "dice": 1,
                        "die": "d6"
                    }
                },
                "group": "brawling",
                "img": "systems/pf2e/icons/unarmed-attacks/fist.webp",
                "key": "Strike",
                "label": "PF2E.Weapon.Base.fist",
                "range": null,
                "traits": [
                    "magical",
                    "unarmed"
                ]
            }
        ],
        "size": {
            "value": "med"
        },
        "source": {
            "value": "Pathfinder Lost Omens: The Grand Bazaar"
        },
        "stackGroup": {
            "value": ""
        },
        "traits": {
            "custom": "",
            "rarity": "uncommon",
            "value": [
                "evocation",
                "invested",
                "primal"
            ]
        },
        "usage": {
            "value": "worn"
        },
        "weight": {
            "value": "-"
        }
    },
    "effects": [],
    "flags": {},
    "img": "systems/pf2e/icons/default-icons/equipment.svg",
    "name": "Fleshgem (Combat)",
    "type": "equipment"
}
