{
    "_id": "3oexArva2aEm69WV",
    "data": {
        "MAP": {
            "value": ""
        },
        "baseItem": "dogslicer",
        "bonus": {
            "value": 0
        },
        "bonusDamage": {
            "value": 0
        },
        "brokenThreshold": {
            "value": 0
        },
        "bulkCapacity": {
            "value": ""
        },
        "category": "martial",
        "collapsed": {
            "value": false
        },
        "containerId": {
            "value": ""
        },
        "damage": {
            "damageType": "slashing",
            "dice": 1,
            "die": "d6",
            "value": ""
        },
        "description": {
            "value": "<p>This <em>+2 striking dogslicer</em> is obviously the work of a brilliant but scrappy artisan who valued versatility over safety. Four toothy gems line the blade's cutting edge, three of which glow-one with fiery red light, one with a chill blue, and one that gives off sparks-while the last is a glistening black. Each of these gems embodies a weapon property rune, but only one rune can be active at a time.</p>\n<p><strong>Activate</strong> <span class=\"pf2-icon\">1</span> Interact</p>\n<p><strong>Effect</strong> You twist the gem along the blade corresponding with the desired weapon rune: red for <em>flaming</em>, blue for <em>frost</em>, or yellow for <em>shock</em>. You take 1d6 damage of the type the chosen rune deals. You can instead twist the black gem to disable the active property rune, taking no damage.</p>"
        },
        "equipped": {
            "value": false
        },
        "equippedBulk": {
            "value": ""
        },
        "group": "sword",
        "hands": {
            "value": ""
        },
        "hardness": {
            "value": 0
        },
        "hp": {
            "value": 0
        },
        "identification": {
            "misidentified": {},
            "status": "identified",
            "unidentified": {
                "data": {
                    "description": {
                        "value": ""
                    }
                },
                "img": "",
                "name": ""
            }
        },
        "invested": {
            "value": false
        },
        "level": {
            "value": 12
        },
        "maxHp": {
            "value": 0
        },
        "negateBulk": {
            "value": "0"
        },
        "potencyRune": {
            "value": 2
        },
        "preciousMaterial": {
            "value": null
        },
        "preciousMaterialGrade": {
            "value": null
        },
        "price": {
            "value": "1,700 gp"
        },
        "property1": {
            "critDamage": "",
            "critDamageType": "",
            "critDice": null,
            "critDie": "",
            "criticalConditionType": "",
            "criticalConditionValue": null,
            "damageType": "",
            "dice": null,
            "die": "",
            "strikeConditionType": "",
            "strikeConditionValue": null,
            "value": ""
        },
        "propertyRune1": {
            "value": null
        },
        "propertyRune2": {
            "value": null
        },
        "propertyRune3": {
            "value": null
        },
        "propertyRune4": {
            "value": null
        },
        "quantity": {
            "value": 1
        },
        "range": null,
        "reload": {
            "value": ""
        },
        "rules": [],
        "size": {
            "value": "med"
        },
        "source": {
            "value": "Pathfinder Advanced Player's Guide"
        },
        "specific": {
            "material": null,
            "runes": {
                "potency": 2,
                "striking": "striking"
            },
            "value": true
        },
        "splashDamage": {
            "value": null
        },
        "stackGroup": {
            "value": ""
        },
        "strikingRune": {
            "value": "striking"
        },
        "traits": {
            "custom": "",
            "rarity": "uncommon",
            "value": [
                "agile",
                "backstabber",
                "cold",
                "electricity",
                "evocation",
                "finesse",
                "fire",
                "goblin",
                "magical"
            ]
        },
        "usage": {
            "value": "held-in-one-hand"
        },
        "weight": {
            "value": "L"
        }
    },
    "effects": [],
    "flags": {},
    "img": "systems/pf2e/icons/equipment/weapons/specific-magic-weapons/four-ways-dogslicer.webp",
    "name": "Four-Ways Dogslicer",
    "type": "weapon"
}
