{
    "_id": "2idzJUvuy8Zu6y78",
    "data": {
        "baseItem": null,
        "brokenThreshold": {
            "value": 0
        },
        "bulkCapacity": {
            "value": ""
        },
        "collapsed": {
            "value": false
        },
        "containerId": {
            "value": null
        },
        "description": {
            "value": "<p>This porous steel coil wraps around a shard of onyx, supplementing the closely guarded science of galvaspheres with the magic of necromancy. When embedded in a body comprised of flesh, the blood and other fluids catalyze electrical pulses within the coil, activating the necromantic energies. In living creatures, this causes a dangerous surge that can damage the heart. In corpses, however, this can create a limited window of reanimation, with access to the corpse's final memories.<em> Galvanic mortal coils</em> are even rarer than other galvaspheres, and thought by most to be merely hypothetical.</p>\n<hr />\n<p><strong>Activate</strong> <span class=\"pf2-icon\">d</span> Interact</p>\n<p><strong>Frequency</strong> once per hour</p>\n<p><strong>Effect</strong> You drive the coil into a living creature that has 0 HP while attaching the other end to yourself, in order to damage their heart and possibly siphon their life force. The <em>galvanic mortal coil</em> casts <em>@Compendium[pf2e.spells-srd.Death Knell]{Death Knell}</em> on the creature @Check[type:will|dc:27].</p>\n<hr />\n<p><strong>Activate</strong> (10 minutes) Interact</p>\n<p><strong>Frequency</strong> once per day</p>\n<p><strong>Effect</strong> You implant the coil into a corpse. The coil casts <em>@Compendium[pf2e.spells-srd.Talking Corpse]{Talking Corpse}</em> on the body.</p>"
        },
        "equipped": {
            "value": false
        },
        "equippedBulk": {
            "value": ""
        },
        "hardness": {
            "value": 0
        },
        "hp": {
            "value": 0
        },
        "identification": {
            "misidentified": {},
            "status": "identified",
            "unidentified": {
                "data": {
                    "description": {
                        "value": ""
                    }
                },
                "img": "",
                "name": ""
            }
        },
        "invested": {
            "value": null
        },
        "level": {
            "value": 10
        },
        "maxHp": {
            "value": 0
        },
        "negateBulk": {
            "value": "0"
        },
        "preciousMaterial": {
            "value": null
        },
        "preciousMaterialGrade": {
            "value": null
        },
        "price": {
            "value": "970 gp"
        },
        "quantity": {
            "value": 1
        },
        "rules": [],
        "size": {
            "value": "med"
        },
        "source": {
            "value": "Pathfinder Guns & Gears"
        },
        "stackGroup": {
            "value": ""
        },
        "traits": {
            "custom": "",
            "rarity": "rare",
            "value": [
                "magical",
                "necromancy"
            ]
        },
        "usage": {
            "value": "held-in-one-hand"
        },
        "weight": {
            "value": "L"
        }
    },
    "effects": [],
    "flags": {},
    "img": "systems/pf2e/icons/default-icons/equipment.svg",
    "name": "Galvanic Mortal Coil",
    "type": "equipment"
}
