{
    "_id": "peoheZMxdPHUNo93",
    "data": {
        "baseItem": null,
        "brokenThreshold": {
            "value": 0
        },
        "bulkCapacity": {
            "value": ""
        },
        "collapsed": {
            "value": false
        },
        "containerId": {
            "value": ""
        },
        "description": {
            "value": "<p>When you affix these simple iron horseshoes to the hooves of an ordinary horse or a quadrupedal animal companion and the animal companion invests them, that creature gains a +5-foot item bonus to its land Speed and a +2 item bonus to Athletics checks to High Jump and Long Jump.</p>\n<p>In addition, when it Leaps, it can move 5 feet farther if jumping horizontally or 3 feet higher if jumping vertically.</p>\n<hr />\n<p>Automatically applied effects:</p>\n<ul>\n<li>a +5-foot item bonus to its land Speed</li>\n<li>a +2 item bonus to Athletics checks to High Jump and Long Jump.</li>\n</ul>"
        },
        "equipped": {
            "value": false
        },
        "equippedBulk": {
            "value": ""
        },
        "hardness": {
            "value": 0
        },
        "hp": {
            "value": 0
        },
        "identification": {
            "misidentified": {},
            "status": "identified",
            "unidentified": {
                "data": {
                    "description": {
                        "value": ""
                    }
                },
                "img": "",
                "name": ""
            }
        },
        "invested": {
            "value": false
        },
        "level": {
            "value": 7
        },
        "maxHp": {
            "value": 0
        },
        "negateBulk": {
            "value": "0"
        },
        "preciousMaterial": {
            "value": ""
        },
        "preciousMaterialGrade": {
            "value": ""
        },
        "price": {
            "value": "340 gp"
        },
        "quantity": {
            "value": 1
        },
        "rules": [
            {
                "key": "FlatModifier",
                "label": "Horseshoes of Speed (long & high jumps)",
                "predicate": {
                    "any": [
                        "action:high-jump",
                        "action:long-jump"
                    ]
                },
                "selector": "athletics",
                "type": "item",
                "value": 2
            },
            {
                "key": "FlatModifier",
                "selector": "land-speed",
                "type": "item",
                "value": 5
            }
        ],
        "size": {
            "value": "med"
        },
        "source": {
            "value": "Pathfinder Core Rulebook"
        },
        "stackGroup": {
            "value": ""
        },
        "traits": {
            "custom": "",
            "rarity": "common",
            "value": [
                "companion",
                "invested",
                "primal",
                "transmutation"
            ]
        },
        "usage": {
            "value": "wornhorseshoes"
        },
        "weight": {
            "value": "1"
        }
    },
    "effects": [],
    "flags": {},
    "img": "systems/pf2e/icons/equipment/worn-items/companion-items/horseshoes-of-speed.webp",
    "name": "Horseshoes of Speed",
    "type": "equipment"
}
