{
    "_id": "2jtZPnHF1M8vKWry",
    "data": {
        "MAP": {
            "value": ""
        },
        "baseItem": "club",
        "bonus": {
            "value": 0
        },
        "bonusDamage": {
            "value": 0
        },
        "brokenThreshold": {
            "value": 0
        },
        "bulkCapacity": {
            "value": ""
        },
        "category": "simple",
        "collapsed": {
            "value": false
        },
        "containerId": {
            "value": ""
        },
        "damage": {
            "damageType": "bludgeoning",
            "dice": 1,
            "die": "d6",
            "value": ""
        },
        "description": {
            "value": "<p>Hunter's Dawn is a +3 greater striking @Compendium[pf2e.equipment-srd.Speed]{Speed} @Compendium[pf2e.equipment-srd.Ghost Touch]{Ghost Touch} club.</p>\n<p>However, the notched head of the weapon marks it as an atlatl, an ancient tool used for throwing darts and javelins. You can use Hunter's Dawn with a mundane dart or javelin like you would use a bow with an arrow; when you do so, the range of the dart or javelin is doubled, and the dart or javelin uses Hunter's Dawn to determine its attack modifier and damage dice.</p>\n<hr />\n<p><strong>Activate</strong> (Single Action to Three Actions) Interact</p>\n<p><strong>Effect</strong> You swing Hunter's Dawn and launch a magically conjured javelin at a target within 60 feet, making a ranged Strike.</p>\n<p>The javelin has the statistics of a javelin but gains the magical properties of Hunter's Dawn and disappears immediately after hitting or missing its target.</p>\n<p>On a successful hit, you deal damage (3d6 piercing, due to the atlatl's greater striking rune, plus your Strength modifier); in addition, a gazelle leaps from the hit target to one or more targets within 20 feet of the first, dealing 2d6 piercing damage plus your Strength modifier. The number of additional targets hit in this way is equal to the number of actions you spend to activate this ability (one additional target if you used one action, two additional targets for two actions, and so forth).</p>\n<hr />\n<p><strong>Activate</strong> (Reaction)</p>\n<p><strong>Trigger</strong> You hit a creature with a ranged Strike with Hunter's Dawn</p>\n<p><strong>Effect</strong> The target is marked. Once per day, you can cast a 5th-level <em>@Compendium[pf2e.spells-srd.Locate]{Locate}</em> spell on the marked target, regardless of its distance from you or your ability to cast spells. This effect persists until it is dispelled (counterspell DC 46), the creature dies, or a new target is marked.</p>\n<hr />\n<p><strong>Activate</strong> (Single Action) Interact</p>\n<p><strong>Frequency</strong> three times per day</p>\n<p><strong>ffect</strong> You shave a curl of wood from Hunter's Dawn and create a roaring fire within 15 feet. You can choose one of the following shapes for the fire to take: a 10-foot square, a @Template[type:line|distance:20], or a @Template[type:cone|distance:15]. Each creature in the affected squares take [[/r 6d6]] fire damage (DC 46 basic Reflex save).</p>\n<hr />\n<p><strong>Destruction</strong> Hunter's Dawn can be destroyed only by placing it on the funeral pyre of a dead god.</p>"
        },
        "equipped": {
            "value": false
        },
        "equippedBulk": {
            "value": ""
        },
        "group": "club",
        "hands": {
            "value": ""
        },
        "hardness": {
            "value": 0
        },
        "hp": {
            "value": 0
        },
        "identification": {
            "misidentified": {},
            "status": "identified",
            "unidentified": {
                "data": {
                    "description": {
                        "value": ""
                    }
                },
                "img": "",
                "name": ""
            }
        },
        "invested": {
            "value": false
        },
        "level": {
            "value": 23
        },
        "maxHp": {
            "value": 0
        },
        "negateBulk": {
            "value": "0"
        },
        "potencyRune": {
            "value": 3
        },
        "preciousMaterial": {
            "value": null
        },
        "preciousMaterialGrade": {
            "value": null
        },
        "price": {
            "value": "0 gp"
        },
        "property1": {
            "critDamage": "",
            "critDamageType": "",
            "critDice": null,
            "critDie": "",
            "criticalConditionType": "",
            "criticalConditionValue": null,
            "damageType": "",
            "dice": null,
            "die": "",
            "strikeConditionType": "",
            "strikeConditionValue": null,
            "value": ""
        },
        "propertyRune1": {
            "value": "speed"
        },
        "propertyRune2": {
            "value": "ghostTouch"
        },
        "propertyRune3": {
            "value": null
        },
        "propertyRune4": {
            "value": null
        },
        "quantity": {
            "value": 1
        },
        "range": null,
        "reload": {
            "value": ""
        },
        "rules": [],
        "size": {
            "value": "med"
        },
        "source": {
            "value": "Pathfinder #156: The Apocalypse Prophet"
        },
        "specific": {
            "material": null,
            "runes": {
                "potency": 3,
                "striking": "greaterStriking"
            },
            "value": true
        },
        "splashDamage": {
            "value": null
        },
        "stackGroup": {
            "value": ""
        },
        "strikingRune": {
            "value": "greaterStriking"
        },
        "traits": {
            "custom": "",
            "rarity": "unique",
            "value": [
                "arcane",
                "artifact",
                "enchantment",
                "thrown-10"
            ]
        },
        "usage": {
            "value": "held-in-one-hand"
        },
        "weight": {
            "value": "1"
        }
    },
    "effects": [],
    "flags": {},
    "img": "systems/pf2e/icons/equipment/artifacts/hunters-dawn.webp",
    "name": "Hunter's Dawn",
    "type": "weapon"
}
