{
    "_id": "RC8EmoFiMITFUopr",
    "data": {
        "MAP": {
            "value": ""
        },
        "baseItem": "alchemical-bomb",
        "bonus": {
            "value": 3
        },
        "bonusDamage": {
            "value": 0
        },
        "brokenThreshold": {
            "value": 0
        },
        "bulkCapacity": {
            "value": ""
        },
        "category": "martial",
        "collapsed": {
            "value": false
        },
        "containerId": {
            "value": ""
        },
        "damage": {
            "damageType": "negative",
            "dice": 4,
            "die": "d6",
            "value": ""
        },
        "description": {
            "value": "<p>Necrotic bombs combine reagents most people consider disgusting at best and unholy at worst, creating a life-sucking miasma upon contact with air. A necrotic bomb deals the listed negative damage and splash damage, and it sickens the primary target on a critical hit. This damage harms only living creatures.</p>\n<hr />\n<p>You gain a +3 bonus to attack rolls</p>\n<p>The bomb deals [[/r {4d6}[negative]]]{4d6 negative damage} and [[/r {4}[splash,negative]]]{4 negative splash damage}. On a critical hit, the target is @Compendium[pf2e.conditionitems.Sickened]{Sickened 4}.</p>"
        },
        "equipped": {
            "value": false
        },
        "equippedBulk": {
            "value": ""
        },
        "group": "bomb",
        "hands": {
            "value": ""
        },
        "hardness": {
            "value": 0
        },
        "hp": {
            "value": 0
        },
        "identification": {
            "misidentified": {},
            "status": "identified",
            "unidentified": {
                "data": {
                    "description": {
                        "value": ""
                    }
                },
                "img": "",
                "name": ""
            }
        },
        "invested": {
            "value": false
        },
        "level": {
            "value": 17
        },
        "maxHp": {
            "value": 0
        },
        "negateBulk": {
            "value": "0"
        },
        "potencyRune": {
            "value": null
        },
        "preciousMaterial": {
            "value": ""
        },
        "preciousMaterialGrade": {
            "value": ""
        },
        "price": {
            "value": "2,500 gp"
        },
        "property1": {
            "critDamage": "",
            "critDamageType": "",
            "critDice": 0,
            "critDie": "",
            "criticalConditionType": "",
            "criticalConditionValue": null,
            "damageType": "",
            "dice": 0,
            "die": "",
            "strikeConditionType": "",
            "strikeConditionValue": null,
            "value": ""
        },
        "propertyRune1": {
            "value": null
        },
        "propertyRune2": {
            "value": null
        },
        "propertyRune3": {
            "value": null
        },
        "propertyRune4": {
            "value": null
        },
        "quantity": {
            "value": 1
        },
        "range": 20,
        "reload": {
            "value": ""
        },
        "rules": [
            {
                "key": "Note",
                "selector": "{item|_id}-damage",
                "text": "<p class='compact-text'><strong>Effect</strong> On a critical hit, Target is @Compendium[pf2e.conditionitems.Sickened]{Sickened 4}.</p>"
            }
        ],
        "size": {
            "value": "med"
        },
        "source": {
            "value": "Pathfinder #165: Eyes of Empty Death"
        },
        "specific": {
            "value": false
        },
        "splashDamage": {
            "value": 4
        },
        "stackGroup": {
            "value": ""
        },
        "strikingRune": {
            "value": ""
        },
        "traits": {
            "custom": "",
            "rarity": "common",
            "value": [
                "alchemical",
                "bomb",
                "consumable",
                "negative",
                "splash"
            ]
        },
        "usage": {
            "value": "held-in-one-hand"
        },
        "weight": {
            "value": "L"
        }
    },
    "effects": [],
    "flags": {},
    "img": "systems/pf2e/icons/equipment/alchemical-items/alchemical-bombs/necrotic-bomb.webp",
    "name": "Necrotic Bomb (Major)",
    "type": "weapon"
}
