{
    "_id": "GDSclGF1yk0sw86V",
    "data": {
        "armor": {
            "value": 4
        },
        "baseItem": "breastplate",
        "brokenThreshold": {
            "value": null
        },
        "bulkCapacity": {
            "value": ""
        },
        "category": "medium",
        "check": {
            "value": -2
        },
        "collapsed": {
            "value": false
        },
        "containerId": {
            "value": ""
        },
        "description": {
            "value": "<p>This +1 resilient breastplate is constructed from the salvaged armor plating of one of Numeria's large robots. It protects the wearer from harsh elements and common laser fire, granting the wearer fire resistance 5.</p>\n<p><strong>Activate</strong><span class=\"pf2-icon\">1</span>command</p>\n<p><strong>Frequency</strong> once per day</p>\n<p><strong>Effect</strong> You activate the remnants of mysterious technology within the breastplate to encase yourself in an electric field. For 1 minute, adjacent creatures that hit you with a melee Strike, as well as creatures that touch you or hit you with an unarmed attack, take [[/r 1d10]] electricity damage per hit.</p>"
        },
        "dex": {
            "value": 1
        },
        "equipped": {
            "value": false
        },
        "equippedBulk": {
            "value": "2"
        },
        "group": "plate",
        "hardness": {
            "value": null
        },
        "hp": {
            "value": null
        },
        "identification": {
            "misidentified": {},
            "status": "identified",
            "unidentified": {
                "data": {
                    "description": {
                        "value": ""
                    }
                },
                "img": "",
                "name": ""
            }
        },
        "invested": {
            "value": false
        },
        "level": {
            "value": 10
        },
        "maxHp": {
            "value": null
        },
        "negateBulk": {
            "value": "0"
        },
        "potency": {},
        "potencyRune": {
            "value": 1
        },
        "preciousMaterial": {
            "value": ""
        },
        "preciousMaterialGrade": {
            "value": ""
        },
        "price": {
            "value": "900 gp"
        },
        "propertyRune1": {
            "value": ""
        },
        "propertyRune2": {
            "value": ""
        },
        "propertyRune3": {
            "value": ""
        },
        "propertyRune4": {
            "value": ""
        },
        "quantity": {
            "value": 1
        },
        "resiliencyRune": {
            "value": "resilient"
        },
        "rules": [],
        "size": {
            "value": "med"
        },
        "source": {
            "value": "Pathfinder Society Scenario #1-24: Lightning Strikes, Stars Fall"
        },
        "speed": {
            "value": -5
        },
        "stackGroup": {
            "value": ""
        },
        "strength": {
            "value": 16
        },
        "traits": {
            "custom": "",
            "rarity": "common",
            "value": []
        },
        "usage": {
            "value": "wornarmor"
        },
        "weight": {
            "value": "3"
        }
    },
    "effects": [],
    "flags": {},
    "img": "systems/pf2e/icons/equipment/armor/specific-magic-armor/numerian-steel-breastplate.webp",
    "name": "Numerian Steel Breastplate",
    "type": "armor"
}
