{
    "_id": "4tBK20Atzi5AgCd4",
    "data": {
        "baseItem": null,
        "brokenThreshold": {
            "value": 0
        },
        "bulkCapacity": {
            "value": ""
        },
        "collapsed": {
            "value": false
        },
        "containerId": {
            "value": null
        },
        "description": {
            "value": "<p>On Tekritanin holidays, children reenacted legendary battles of deities by playing with magical tops. Though the paint on this wooden top has long since faded, its magical runes once gleamed yellow-gold and fiery orange, evoking the color of the sky during a sandstorm. To set the top in motion, wind a string around its bottom and upward along its body, and then throw it while gripping the string.</p>\n<p><strong>Activate</strong> <span class=\"pf2-icon\">1</span> Interact</p>\n<p><strong>Frequency</strong> once per day</p>\n<p><strong>Effect</strong> You throw the sandstorm top 10 feet away from you. For 1 minute, as it spins, the top generates a magical sandstorm in a 5-foot radius. Any creature that starts its turn in the area or moves into the area takes [[/r {4d6}[slashing]]]{4d6 slashing damage} (@Check[type:reflex|dc:30|basic:true] save). Additionally, a creature within the sandstorm must hold its breath or begin suffocating.</p>"
        },
        "equipped": {
            "value": false
        },
        "equippedBulk": {
            "value": ""
        },
        "hardness": {
            "value": 0
        },
        "hp": {
            "value": 0
        },
        "identification": {
            "misidentified": {},
            "status": "identified",
            "unidentified": {
                "data": {
                    "description": {
                        "value": ""
                    }
                },
                "img": "",
                "name": ""
            }
        },
        "invested": {
            "value": null
        },
        "level": {
            "value": 13
        },
        "maxHp": {
            "value": 0
        },
        "negateBulk": {
            "value": "0"
        },
        "preciousMaterial": {
            "value": null
        },
        "preciousMaterialGrade": {
            "value": null
        },
        "price": {
            "value": "3000 gp"
        },
        "quantity": {
            "value": 1
        },
        "rules": [],
        "size": {
            "value": "med"
        },
        "source": {
            "value": "Pathfinder Lost Omens: Monsters of Myth"
        },
        "stackGroup": {
            "value": ""
        },
        "traits": {
            "custom": "",
            "rarity": "rare",
            "value": [
                "evocation",
                "magical"
            ]
        },
        "usage": {
            "value": "held-in-one-hand"
        },
        "weight": {
            "value": "L"
        }
    },
    "effects": [],
    "flags": {},
    "img": "systems/pf2e/icons/equipment/adventuring-gear/earplugs.webp",
    "name": "Sandstorm Top",
    "type": "equipment"
}
