{
    "_id": "JSbBiTCtFctuJFhS",
    "data": {
        "baseItem": null,
        "brokenThreshold": {
            "value": 0
        },
        "bulkCapacity": {
            "value": ""
        },
        "collapsed": {
            "value": false
        },
        "containerId": {
            "value": null
        },
        "description": {
            "value": "<p>Those who gain one of Taljjae's masks, either by defeating Taljjae or some other means, are known as its understudies and gain a fraction of its power. Each of Taljjae's masks is an 18th-level unique item with the invested and magical traits; if broken, they're automatically repaired to full HP when invested during daily preparations. The effect of a mask on a PC is noted in the mask's Understudy entry. Wearing one of Taljjae's masks also imposes Taljjae's jelly sense and jelly gluttony on the creature as long as it wears the mask.</p>\n<p><strong>Activate</strong> <span class=\"pf2-icon\">1</span></p>\n<p><strong>Frequency</strong> once per day</p>\n<p><strong>Effect</strong> The General grants its wearer a +3 status bonus to attack rolls with polearms for 1 minute.</p>\n<p>@Compendium[pf2e.equipment-effects.Effect: Taljjae's Mask (The General)]{Effect: Taljjae's Mask (The General)}</p>"
        },
        "equipped": {
            "value": false
        },
        "equippedBulk": {
            "value": ""
        },
        "hardness": {
            "value": 0
        },
        "hp": {
            "value": 0
        },
        "identification": {
            "misidentified": {},
            "status": "identified",
            "unidentified": {
                "data": {
                    "description": {
                        "value": ""
                    }
                },
                "img": "",
                "name": ""
            }
        },
        "invested": {
            "value": null
        },
        "level": {
            "value": 18
        },
        "maxHp": {
            "value": 0
        },
        "negateBulk": {
            "value": "0"
        },
        "preciousMaterial": {
            "value": null
        },
        "preciousMaterialGrade": {
            "value": null
        },
        "price": {
            "value": "0 gp"
        },
        "quantity": {
            "value": 1
        },
        "rules": [],
        "size": {
            "value": "med"
        },
        "source": {
            "value": "Pathfinder Lost Omens: Monsters of Myth"
        },
        "stackGroup": {
            "value": ""
        },
        "traits": {
            "custom": "",
            "rarity": "unique",
            "value": [
                "invested",
                "magical"
            ]
        },
        "usage": {
            "value": "wornmask"
        },
        "weight": {
            "value": "-"
        }
    },
    "effects": [],
    "flags": {},
    "img": "systems/pf2e/icons/equipment/worn-items/other-worn-items/demon-mask.webp",
    "name": "Taljjae's Mask (The General)",
    "type": "equipment"
}
