{
    "_id": "3G2No6QaU1wSPTh6",
    "data": {
        "baseItem": null,
        "brokenThreshold": {
            "value": 0
        },
        "bulkCapacity": {
            "value": ""
        },
        "collapsed": {
            "value": false
        },
        "containerId": {
            "value": ""
        },
        "description": {
            "value": "<p>This sealed pewter urn contains the ashes of a benevolent ancestor, with a sliver of lingering spirit that strives to protect you.</p>\n<p><strong>Activate</strong> <span class=\"pf2-icon\">R</span> envision</p>\n<p><strong>Trigger</strong> You would become doomed or your doomed value would increase</p>\n<p><strong>Requirements</strong> The ashes aren't doomed</p>\n<p><strong>Effect</strong> The ashes in the urn intervene, taking the doomed condition in your place, and you don't gain or increase the value of your own doomed condition. Each night when you get a full night's rest, you can reduce your own doomed condition or that of the urn, but not both.</p>\n<hr />\n<p><strong>Activate</strong> <span class=\"pf2-icon\">1</span>envision, interact (attack)</p>\n<p><strong>Frequency</strong> once per round</p>\n<p><strong>Effect</strong> The urn shoots a bolt of negative energy at a foe within 30 feet.</p>\n<p>Attempt a spell attack roll against the target's AC, using a modifier of [[/r 1d20+15]] or your own spell attack roll modifier, whichever is higher. On a success, the bolt deals [[/r 4d4]] negative damage (doubled on a critical success).</p>"
        },
        "equipped": {
            "value": false
        },
        "equippedBulk": {
            "value": ""
        },
        "hardness": {
            "value": 0
        },
        "hp": {
            "value": 0
        },
        "identification": {
            "misidentified": {},
            "status": "identified",
            "unidentified": {
                "data": {
                    "description": {
                        "value": ""
                    }
                },
                "img": "",
                "name": ""
            }
        },
        "invested": {
            "value": false
        },
        "level": {
            "value": 9
        },
        "maxHp": {
            "value": 0
        },
        "negateBulk": {
            "value": "0"
        },
        "preciousMaterial": {
            "value": ""
        },
        "preciousMaterialGrade": {
            "value": ""
        },
        "price": {
            "value": "700 gp"
        },
        "quantity": {
            "value": 1
        },
        "rules": [],
        "size": {
            "value": "med"
        },
        "source": {
            "value": "Pathfinder Advanced Player's Guide"
        },
        "stackGroup": {
            "value": ""
        },
        "traits": {
            "custom": "",
            "rarity": "common",
            "value": [
                "magical",
                "necromancy",
                "negative"
            ]
        },
        "usage": {
            "value": "held-in-one-hand"
        },
        "weight": {
            "value": "-"
        }
    },
    "effects": [],
    "flags": {},
    "img": "systems/pf2e/icons/equipment/held-items/urn-of-ashes.webp",
    "name": "Urn of Ashes",
    "type": "equipment"
}
