{
    "_id": "gWSmUEKln103LVvB",
    "data": {
        "MAP": {
            "value": ""
        },
        "baseItem": "staff",
        "bonus": {
            "value": 0
        },
        "bonusDamage": {
            "value": 0
        },
        "brokenThreshold": {
            "value": 0
        },
        "bulkCapacity": {
            "value": ""
        },
        "category": "simple",
        "collapsed": {
            "value": false
        },
        "containerId": {
            "value": null
        },
        "damage": {
            "damageType": "bludgeoning",
            "dice": 1,
            "die": "d4",
            "value": ""
        },
        "description": {
            "value": "<p>This staff is made from the femur of a gold dragon wrapped in the multicolored scales of every type of chromatic and metallic dragon. When wielding this staff, you gain a +1 circumstance bonus to skill checks to @Compendium[pf2e.actionspf2e.Coerce]{Coerce}, @Compendium[pf2e.actionspf2e.Make an Impression]{Make an Impression}, @Compendium[pf2e.actionspf2e.Request]{Request}, or @Compendium[pf2e.actionspf2e.Lie]{Lie} to dragons and creatures with strong draconic ties (such as kobolds, dragon instinct barbarians, and draconic sorcerers).</p>\n<hr />\n<p><strong>Activate</strong> <span class=\"pf2-icon\">2</span> command, Interact</p>\n<p><strong>Frequency</strong> once per day</p>\n<p><strong>Effect</strong> Attempt a melee Strike with Wyrm Drinker. If your target is a dragon or a creature with a strong draconic tie, such as a kobold, and you damage the target, the target is @Compendium[pf2e.conditionitems.Drained]{Drained 2}, or @Compendium[pf2e.conditionitems.Drained]{Drained 4} on a critical hit.</p>\n<hr />\n<p><strong>Activate</strong> @Compendium[pf2e.actionspf2e.Cast a Spell]{Cast a Spell}</p>\n<p><strong>Effect</strong> You expend a number of charges from the staff to cast a spell from this list.</p>\n<ul>\n<li><strong>2nd</strong> <em>@Compendium[pf2e.spells-srd.Illusory Creature]{Illusory Creature (Dragons Only)}</em></li>\n<li><strong>4th</strong> <em>@Compendium[pf2e.spells-srd.Reflective Scales]{Reflective Scales}</em></li>\n<li><strong>5th</strong> <em>@Compendium[pf2e.spells-srd.Summon Dragon]{Summon Dragon}</em></li>\n<li><strong>6th</strong> <em>@Compendium[pf2e.spells-srd.Dragon Form]{Dragon Form}</em>, <em>@Compendium[pf2e.spells-srd.Summon Dragon]{Summon Dragon}</em></li>\n<li><strong>7th</strong> <em>@Compendium[pf2e.spells-srd.Summon Dragon]{Summon Dragon}</em></li>\n</ul>\n<hr />\n<p>Automatically applied effects:</p>\n<ul>\n<li>+1 circumstance bonus to checks to Coerce, Make an Impression, Request, or Lie to dragons</li>\n</ul>"
        },
        "equipped": {
            "value": false
        },
        "equippedBulk": {
            "value": ""
        },
        "group": "club",
        "hands": {
            "value": false
        },
        "hardness": {
            "value": 0
        },
        "hp": {
            "value": 0
        },
        "identification": {
            "misidentified": {},
            "status": "identified",
            "unidentified": {
                "data": {
                    "description": {
                        "value": ""
                    }
                },
                "img": "",
                "name": ""
            }
        },
        "invested": {
            "value": null
        },
        "level": {
            "value": 17
        },
        "maxHp": {
            "value": 0
        },
        "negateBulk": {
            "value": "0"
        },
        "potencyRune": {
            "value": 0
        },
        "preciousMaterial": {
            "value": null
        },
        "preciousMaterialGrade": {
            "value": null
        },
        "price": {
            "value": "0"
        },
        "property1": {
            "critDamage": "",
            "critDamageType": "",
            "critDice": 0,
            "critDie": "",
            "criticalConditionType": "",
            "criticalConditionValue": null,
            "damageType": "",
            "dice": 0,
            "die": "",
            "strikeConditionType": "",
            "strikeConditionValue": null,
            "value": ""
        },
        "propertyRune1": {
            "value": null
        },
        "propertyRune2": {
            "value": null
        },
        "propertyRune3": {
            "value": null
        },
        "propertyRune4": {
            "value": null
        },
        "quantity": {
            "value": 1
        },
        "range": null,
        "reload": {
            "value": ""
        },
        "rules": [
            {
                "key": "FlatModifier",
                "label": "Coerce a Dragon",
                "predicate": {
                    "all": [
                        "action:coerce",
                        "target:dragon"
                    ]
                },
                "selector": "intimidation",
                "type": "circumstance",
                "value": 1
            },
            {
                "key": "FlatModifier",
                "label": "Make an Impression on a Dragon",
                "predicate": {
                    "all": [
                        "action:make-an-impression",
                        "target:dragon"
                    ]
                },
                "selector": "diplomacy",
                "type": "circumstance",
                "value": 1
            },
            {
                "key": "FlatModifier",
                "label": "Make a Request of a Dragon",
                "predicate": {
                    "all": [
                        "action:request",
                        "target:dragon"
                    ]
                },
                "selector": "diplomacy",
                "type": "circumstance",
                "value": 1
            },
            {
                "key": "FlatModifier",
                "label": "Lie to a Dragon",
                "predicate": {
                    "all": [
                        "action:lie",
                        "target:dragon"
                    ]
                },
                "selector": "deception",
                "type": "circumstance",
                "value": 1
            }
        ],
        "size": {
            "value": "med"
        },
        "source": {
            "value": "Pathfinder #173: Doorway to the Red Star"
        },
        "specific": {
            "value": false
        },
        "splashDamage": {
            "value": 0
        },
        "stackGroup": {
            "value": ""
        },
        "strikingRune": {
            "value": ""
        },
        "traits": {
            "custom": "",
            "rarity": "unique",
            "value": [
                "conjuration",
                "magical",
                "staff",
                "two-hand-d8"
            ]
        },
        "usage": {
            "value": "held-in-one-hand"
        },
        "weight": {
            "value": "-"
        }
    },
    "effects": [],
    "flags": {},
    "img": "systems/pf2e/icons/default-icons/weapon.svg",
    "name": "Wyrm Drinker",
    "type": "weapon"
}
