{
    "_id": "6isn9nqnvfRrC1wW",
    "data": {
        "actionCategory": {
            "value": "offensive"
        },
        "actionType": {
            "value": "passive"
        },
        "actions": {
            "value": null
        },
        "description": {
            "value": "<p>The graveknight has access to the critical specialization effects of any weapons it wields.</p>\n<p><em>As NPC strikes are not generated from the weapons it holds, this feature cannot be automated. Add a \"Note\" rule element to each of the graveknight's strikes for the correct critical specialization.</em></p>"
        },
        "requirements": {
            "value": ""
        },
        "rules": [],
        "source": {
            "value": "Pathfinder Bestiary"
        },
        "traits": {
            "custom": "",
            "rarity": "common",
            "value": []
        },
        "trigger": {
            "value": ""
        },
        "weapon": {
            "value": ""
        }
    },
    "effects": [],
    "flags": {},
    "img": "systems/pf2e/icons/actions/Passive.webp",
    "name": "(Graveknight) Weapon Master",
    "type": "action"
}
