{
    "_id": "KJrQdJQ0ZEmKYH4Y",
    "data": {
        "actionCategory": {
            "value": "offensive"
        },
        "actionType": {
            "value": "passive"
        },
        "actions": {
            "value": null
        },
        "description": {
            "value": "<p>@Template[type:emanation|distance:20] @Compendium[pf2e.bestiary-ability-glossary-srd.Aura]{Aura}</p>\n<p>While the Kallas Devil is disguised as a child, any creature in the aura who is considered an adult by their culture takes a -2 circumstance penalty to checks and DCs opposing the Kallas Devil's Deception.</p>"
        },
        "requirements": {
            "value": ""
        },
        "rules": [],
        "source": {
            "value": "Pathfinder Lost Omens: Monsters of Myth"
        },
        "traits": {
            "custom": "Charm",
            "rarity": "common",
            "value": [
                "aura",
                "emotion",
                "mental"
            ]
        },
        "trigger": {
            "value": ""
        }
    },
    "effects": [],
    "flags": {},
    "img": "systems/pf2e/icons/actions/Passive.webp",
    "name": "(Kallas Devil) Suffer the Children",
    "type": "action"
}
