{
    "_id": "9wX6EFimVFYFZjD7",
    "data": {
        "actionCategory": {
            "value": "defensive"
        },
        "actionType": {
            "value": "passive"
        },
        "actions": {
            "value": null
        },
        "description": {
            "value": "<p>Beneath the plates of bone and ice on Ulgrem-Axaan flow the viscous remains of its vital fluids. Creatures coming into physical contact with this fluid must succeed at a @Check[type:fortitude|dc:22|name:Ichor Coating] save or become infected with @Compendium[pf2e.bestiary-family-ability-glossary.(Ghoul) Ghoul Fever]{Ghoul Fever}.</p>"
        },
        "requirements": {
            "value": ""
        },
        "rules": [],
        "source": {
            "value": "Pathfinder Lost Omens: Monsters of Myth"
        },
        "traits": {
            "custom": "",
            "rarity": "common",
            "value": [
                "disease"
            ]
        },
        "trigger": {
            "value": ""
        }
    },
    "effects": [],
    "flags": {},
    "img": "systems/pf2e/icons/actions/Passive.webp",
    "name": "(Ulgrem-Axaan) Ichor Coating",
    "type": "action"
}
