{
    "_id": "noOXyIXmwYN2rRd1",
    "data": {
        "actionCategory": {
            "value": "interaction"
        },
        "actionType": {
            "value": "passive"
        },
        "actions": {
            "value": null
        },
        "description": {
            "value": "<p>The vampire's presence brings forth creatures of the night to do the master's bidding. These typically include @Compendium[pf2e.pathfinder-bestiary.Rat Swarm]{Rat Swarms}, @Compendium[pf2e.pathfinder-bestiary.Vampire Bat Swarm]{Bat Swarms}, and @Compendium[pf2e.pathfinder-bestiary.Wolf]{Wolves}, but can include other creatures.</p>\n<p>The vampire can give telepathic orders to these creatures as long as they are within 100 feet, but they can't communicate back.</p>"
        },
        "requirements": {
            "value": ""
        },
        "rules": [],
        "source": {
            "value": "Pathfinder Bestiary"
        },
        "traits": {
            "custom": "",
            "rarity": "common",
            "value": [
                "divine",
                "enchantment",
                "mental"
            ]
        },
        "trigger": {
            "value": ""
        },
        "weapon": {
            "value": ""
        }
    },
    "effects": [],
    "flags": {},
    "img": "systems/pf2e/icons/actions/Passive.webp",
    "name": "(Vampire, True) Children of the Night",
    "type": "action"
}
