{
    "_id": "CxiEpXt7Gw3tSIOh",
    "data": {
        "actionCategory": {
            "value": "defensive"
        },
        "actionType": {
            "value": "passive"
        },
        "actions": {
            "value": null
        },
        "description": {
            "value": "<p>@Template[type:emanation|distance:10]{10 feet} @Compendium[pf2e.bestiary-ability-glossary-srd.Aura]{Aura}</p>\n<p>The zombie emits an aura of rot and disease that causes wounds to fester and turn sour.</p>\n<p>Any living creature that starts its turn within 10 feet of the zombie and is not at full Hit Points takes [[/r {1d6}]]{1d6 damage} as its wounds fester. This damage increases by 1d6 for every 6 levels the zombie has.</p>\n<p>Creatures that take a critical hit from the zombie also take this damage immediately.</p>"
        },
        "requirements": {
            "value": ""
        },
        "rules": [],
        "source": {
            "value": "Pathfinder Bestiary"
        },
        "traits": {
            "custom": "",
            "rarity": "common",
            "value": [
                "aura",
                "disease",
                "necromancy"
            ]
        },
        "trigger": {
            "value": ""
        },
        "weapon": {
            "value": ""
        }
    },
    "effects": [],
    "flags": {},
    "img": "systems/pf2e/icons/actions/Passive.webp",
    "name": "(Zombie) Rotting Aura",
    "type": "action"
}
