{
    "_id": "ja9KowUPZjhwhJ1x",
    "data": {
        "attributes": {
            "ac": {
                "value": 0
            },
            "hardness": 0,
            "hasHealth": true,
            "hp": {
                "details": "",
                "max": 10,
                "temp": 0,
                "tempmax": 0,
                "value": 10
            },
            "stealth": {
                "details": "<p>(master) to hear the quiet murmurs of angry spirits</p>",
                "value": 25
            }
        },
        "creatureType": "",
        "customModifiers": {},
        "details": {
            "description": "<p>Malevolent spirits led by a ghostly image of Ludika rise and begin a deadly brawl. These spirits attempt to overwhelm living creatures, forcing them to join the battle.</p>",
            "disable": "<p>@Check[type:religion|dc:35|name:Exorcise|traits:haunt,complex] (master) three times to exorcise the spirits or @Check[type:diplomacy|dc:39|name:Talk Down|traits:haunt,complex] (expert) three times to talk them down.</p>",
            "isComplex": true,
            "level": {
                "value": 16
            },
            "reset": "<p>After 24 hours, the haunt returns. The spirits are permanently put to rest only if a lawfully appointed judge from Saggorak (or Kovlar) comes into the prison, takes damage from the haunt, and survives the attack.</p>",
            "routine": "<p>(1 action) As 1 action, the haunt causes a barrage of ghostly fists to lash from the walls, floors, and ceiling. The haunt attempts a spectral fist Strike against each creature in area <strong>H10</strong>.</p>"
        },
        "saves": {
            "fortitude": {
                "saveDetail": "",
                "value": 0
            },
            "reflex": {
                "saveDetail": "",
                "value": 0
            },
            "will": {
                "saveDetail": "",
                "value": 0
            }
        },
        "source": {
            "value": "Pathfinder #148: Fires of the Haunted City"
        },
        "statusEffects": [],
        "traits": {
            "ci": [],
            "di": {
                "custom": "",
                "selected": {},
                "value": []
            },
            "dr": [],
            "dv": [],
            "rarity": "unique",
            "size": {
                "value": "med"
            },
            "traits": {
                "custom": "NE",
                "value": [
                    "haunt"
                ]
            }
        }
    },
    "effects": [],
    "flags": {},
    "img": "systems/pf2e/icons/default-icons/hazard.svg",
    "items": [
        {
            "_id": "dU7uiLZral2AnGbC",
            "data": {
                "actionCategory": {
                    "value": "offensive"
                },
                "actionType": {
                    "value": "reaction"
                },
                "actions": {
                    "value": null
                },
                "description": {
                    "value": "<p data-visibility=\"gm\"><strong>Trigger</strong> At least three creatures enter area <strong>H10</strong>.</p>\n<p><strong>Effect</strong> The haunt takes control of all creatures in the prison, affecting them with <em>@Compendium[pf2e.spells-srd.Confusion]{Confusion}</em> (8th level, @Check[type:will|dc:37] save).</p>"
                },
                "requirements": {
                    "value": ""
                },
                "rules": [],
                "slug": null,
                "source": {
                    "value": ""
                },
                "traits": {
                    "custom": "",
                    "rarity": "common",
                    "value": [
                        "emotion",
                        "fear",
                        "illusion",
                        "mental",
                        "occult"
                    ]
                },
                "trigger": {
                    "value": ""
                },
                "weapon": {
                    "value": ""
                }
            },
            "effects": [],
            "flags": {},
            "img": "systems/pf2e/icons/actions/Reaction.webp",
            "name": "Confuse",
            "sort": 100000,
            "type": "action"
        },
        {
            "_id": "TSSV8a0oKTioJrDT",
            "data": {
                "attack": {
                    "value": ""
                },
                "attackEffects": {
                    "custom": "",
                    "value": []
                },
                "bonus": {
                    "value": 35
                },
                "damageRolls": {
                    "chk2cry7mi9jqcfehyid5": {
                        "damage": "5d10",
                        "damageType": "bludgeoning"
                    }
                },
                "description": {
                    "value": "<p>On hit the creature must attempt a new @Check[type:will|dc:37|name:Spectral Fist Confusion] save against <em>@Compendium[pf2e.spells-srd.Confusion]{Confusion}</em> if it's not already @Compendium[pf2e.conditionitems.Confused]{Confused}.</p>"
                },
                "rules": [],
                "slug": null,
                "source": {
                    "value": ""
                },
                "traits": {
                    "custom": "",
                    "rarity": "common",
                    "value": [
                        "magical",
                        "reach-10"
                    ]
                },
                "weaponType": {
                    "value": "melee"
                }
            },
            "effects": [],
            "flags": {},
            "img": "systems/pf2e/icons/default-icons/melee.svg",
            "name": "Spectral Fist",
            "sort": 200000,
            "type": "melee"
        }
    ],
    "name": "Echoes of Betrayal",
    "token": {
        "disposition": 0,
        "height": 1,
        "img": "systems/pf2e/icons/default-icons/hazard.svg",
        "name": "Echoes of Betrayal",
        "width": 1
    },
    "type": "hazard"
}
