{
    "_id": "4eIQKcyYKRGwKXSc",
    "content": "<table class=\"pf2-table\">\n<thead>\n<tr>\n<th>\n<h3><strong>Name</strong></h3>\n</th>\n<th>\n<h3><strong>Crit Effect</strong></h3>\n</th>\n<th>\n<h3><strong>Type</strong></h3>\n</th>\n</tr>\n</thead>\n<tbody>\n<tr>\n<td>Pointy End goes There</td>\n<td>You become wounded 1 or your wounded value increases by 1.</td>\n<td>\n<h3>Melee</h3>\n</td>\n</tr>\n<tr>\n<td>Tunnel Vision</td>\n<td>For 3 rounds, you gain a +1 circumstance bonus to attack rolls, but you are flat-footed.</td>\n<td>\n<h3>Ranged</h3>\n</td>\n</tr>\n<tr>\n<td>Head First!</td>\n<td>You fall unconscious until you wake up or the end of your next turn.</td>\n<td>\n<h3>Unarmed</h3>\n</td>\n</tr>\n<tr>\n<td>Wild Magic</td>\n<td>Roll twice on the rod of wonder table. You are the target of those effects.</td>\n<td>\n<h3>Spell</h3>\n</td>\n</tr>\n</tbody>\n</table>\n<h3 style=\"text-align: left;\"> </h3>",
    "flags": {},
    "name": "Critical Fumble Deck #54",
    "permission": {
        "default": 0
    }
}
