{
    "_id": "HbejhIywqIufrmVM",
    "data": {
        "actionCategory": {
            "value": "offensive"
        },
        "actionType": {
            "value": "action"
        },
        "actions": {
            "value": 1
        },
        "description": {
            "value": "<p><strong>Requirements</strong> You used your most recent action to Cast a Spell or make a Spellstrike.</p>\n<p><strong>Grants</strong> @Compendium[pf2e.feature-effects.Stance: Arcane Cascade]{Stance: Arcane Cascade}</p>\n<hr />\n<p>You divert a portion of the spell's magical power and keep it cycling through your body and weapon using specialized forms, breathing, or footwork. While you're in the stance, your melee Strikes deal [[/r {1}]]{1 extra damage}. This damage increases to 2 if you have weapon specialization and 3 if you have greater weapon specialization. Any Strike that benefits from this damage gains the arcane trait, making it magical.</p>\n<p>If your most recent spell before entering the stance was one that can deal damage, the damage from the stance is the same type that spell could deal (or one type of your choice if the spell could deal multiple types of damage). If the spell couldn't deal damage, this stance's bonus damage depends on the spell's school.</p>\n<ul>\n<li><strong>Abjuration</strong> or <strong>Evocation</strong> force</li>\n<li><strong>Conjuration</strong> or <strong>Transmutation</strong> same type as your weapon or unarmed attack</li>\n<li><strong>Divination</strong>, <strong>Enchantment</strong>, or <strong>Illusion</strong> mental</li>\n<li><strong>Necromancy</strong> negative</li>\n</ul>"
        },
        "requirements": {
            "value": ""
        },
        "rules": [],
        "source": {
            "value": ""
        },
        "traits": {
            "custom": "",
            "rarity": "common",
            "value": [
                "concentrate",
                "magus",
                "stance"
            ]
        },
        "trigger": {
            "value": ""
        },
        "weapon": {
            "value": ""
        }
    },
    "effects": [],
    "flags": {},
    "img": "systems/pf2e/icons/actions/OneAction.webp",
    "name": "Arcane Cascade",
    "type": "action"
}
