{
    "_id": "2424g94rpoiN1IPh",
    "data": {
        "actionCategory": {
            "value": ""
        },
        "actionType": {
            "value": "reaction"
        },
        "actions": {
            "value": null
        },
        "description": {
            "value": "<p><strong>Trigger</strong> determined by your catharsis emotion</p>\n<p><strong>Effect</strong> You gain the catharsis activation effects listed for your catharsis emotion. You gain that emotion's emotional fervor benefits for 3 rounds. When your emotional fervor ends, you suffer the listed emotional fallout. After using Catharsis, you can't use it again until you use the @Compendium[pf2e.actionspf2e.Settle Emotions]{Settle Emotions} activity.</p>"
        },
        "requirements": {
            "value": ""
        },
        "rules": [],
        "source": {
            "value": ""
        },
        "traits": {
            "custom": "",
            "rarity": "common",
            "value": [
                "concentrate",
                "emotion",
                "mental"
            ]
        },
        "trigger": {
            "value": ""
        },
        "weapon": {
            "value": ""
        }
    },
    "effects": [],
    "flags": {},
    "img": "systems/pf2e/icons/actions/Reaction.webp",
    "name": "Catharsis",
    "type": "action"
}
