{
    "_id": "ust1jJSCZQUhBZIz",
    "data": {
        "actionCategory": {
            "value": ""
        },
        "actionType": {
            "value": "action"
        },
        "actions": {
            "value": 1
        },
        "description": {
            "value": "<p><strong>Requirements</strong> You are benefiting from cover, are near a feature that allows you to take cover, or are @Compendium[pf2e.conditionitems.Prone]{Prone}</p>\n<hr />\n<p>You press yourself against a wall or duck behind an obstacle to take better advantage of cover. If you would have standard cover, you instead gain greater cover, which provides a +4 circumstance bonus to AC; to Reflex saves against area effects; and to Stealth checks to @Compendium[pf2e.actionspf2e.Hide]{Hide}, @Compendium[pf2e.actionspf2e.Sneak]{Sneak}, or otherwise avoid detection. Otherwise, you gain the benefits of standard cover (a +2 circumstance bonus instead). This lasts until you move from your current space, use an attack action, become @Compendium[pf2e.conditionitems.Unconscious]{Unconscious}, or end this effect as a free action.</p>"
        },
        "requirements": {
            "value": ""
        },
        "rules": [],
        "source": {
            "value": "Pathfinder Core Rulebook"
        },
        "traits": {
            "custom": "",
            "rarity": "common",
            "value": [
                "general"
            ]
        },
        "trigger": {
            "value": ""
        },
        "weapon": {
            "value": ""
        }
    },
    "effects": [],
    "flags": {},
    "img": "systems/pf2e/icons/actions/OneAction.webp",
    "name": "Take Cover",
    "type": "action"
}
