{
    "_id": "mCb9mWAmgWPQrkTY",
    "data": {
        "description": {
            "value": ""
        },
        "duration": {
            "expiry": "turn-start",
            "sustained": false,
            "unit": "minutes",
            "value": 10
        },
        "level": {
            "value": 2
        },
        "rules": [
            {
                "key": "Resistance",
                "type": "bludgeoning",
                "value": 2
            },
            {
                "key": "Weakness",
                "type": "fire",
                "value": "8"
            },
            {
                "key": "Resistance",
                "type": "piercing",
                "value": 2
            }
        ],
        "source": {
            "value": "Pathfinder Guns & Gears"
        },
        "start": {
            "initiative": null,
            "value": 0
        },
        "target": null,
        "tokenIcon": {
            "show": true
        },
        "traits": {
            "custom": "",
            "rarity": "common",
            "value": []
        }
    },
    "effects": [],
    "flags": {},
    "img": "systems/pf2e/icons/default-icons/effect.svg",
    "name": "Spell Effect: Barkskin (Arboreal's Revenge)",
    "type": "effect"
}
