{
    "_id": "7gGcpQMqnZhBDZLI",
    "data": {
        "ancestry": {
            "name": "Anadi",
            "uuid": "Compendium.pf2e.ancestries.TQEqWqc7BYiadUdY"
        },
        "description": {
            "value": "<p>You descend from a line of anadi who worked to perfect their transformation magic, allowing them to integrate into a wider variety of cultures. Choose a common, Medium humanoid ancestry. Your human form is replaced with a form that matches this choice. You also gain the @Compendium[pf2e.feats-srd.Adopted Ancestry]{Adopted Ancestry} feat for your chosen humanoid ancestry.</p>"
        },
        "rules": [
            {
                "key": "GrantItem",
                "uuid": "Compendium.pf2e.feats-srd.Adopted Ancestry"
            }
        ],
        "source": {
            "value": ""
        },
        "traits": {
            "custom": "",
            "rarity": "common",
            "value": []
        }
    },
    "effects": [],
    "flags": {},
    "img": "systems/pf2e/icons/default-icons/heritage.svg",
    "name": "Adaptive Anadi",
    "type": "heritage"
}
