{
    "_id": "VTtXwBxrfRUXSL38",
    "data": {
        "ancestry": {
            "name": "Dwarf",
            "uuid": "Compendium.pf2e.ancestries.BYj5ZvlXZdpaEgA6"
        },
        "description": {
            "value": "<p>Your ancestors have been tomb guardians for generations, and the power they cultivated to ward off necromancy has passed on to you. If you roll a success on a saving throw against a necromancy effect, you get a critical success instead.</p>"
        },
        "rules": [
            {
                "key": "Note",
                "predicate": {
                    "all": [
                        "necromancy"
                    ]
                },
                "selector": "saving-throw",
                "text": "<p class='compact-text'><strong>{item|name}</strong> When you roll a success against a necromancy effect, you get a critical success instead.</p>"
            }
        ],
        "source": {
            "value": ""
        },
        "traits": {
            "custom": "",
            "rarity": "common",
            "value": []
        }
    },
    "effects": [],
    "flags": {},
    "img": "systems/pf2e/icons/features/ancestry/death-warden-dwarf.webp",
    "name": "Death Warden Dwarf",
    "type": "heritage"
}
