{
    "_id": "MeMAAtUlZmFgKSMF",
    "data": {
        "ancestry": {
            "name": "Dwarf",
            "uuid": "Compendium.pf2e.ancestries.BYj5ZvlXZdpaEgA6"
        },
        "description": {
            "value": "<p>Whether through a connection to @Compendium[pf2e.deities.Torag]{Torag's} forge, the azers of the Plane of Fire, or another source, you can exude a burst of energy. Mbe'ke and Taralu dwarves of the Mwangi Expanse believe this heritage is a gift from dragons or elemental spirits. Choose one of the following damage types: acid, cold, electricity, or fire. Once chosen, this can't be changed. You gain the @Compendium[pf2e.actionspf2e.Energy Emanation]{Energy Emanation} activity.</p>"
        },
        "rules": [
            {
                "key": "GrantItem",
                "uuid": "Compendium.pf2e.actionspf2e.Energy Emanation"
            }
        ],
        "source": {
            "value": ""
        },
        "traits": {
            "custom": "",
            "rarity": "common",
            "value": []
        }
    },
    "effects": [],
    "flags": {},
    "img": "systems/pf2e/icons/features/ancestry/elemental-heat-dwarf.webp",
    "name": "Elemental Heart Dwarf",
    "type": "heritage"
}
