{
    "_id": "Eq42wZ5OTweJLnLU",
    "data": {
        "ancestry": {
            "name": "Halfling",
            "uuid": "Compendium.pf2e.ancestries.GgZAHbrjnzWOZy2v"
        },
        "description": {
            "value": "<p>Your family line is known for keeping a level head and staving off fear when the chips were down, making them wise leaders and sometimes even heroes. When you roll a success on a saving throw against an emotion effect, you get a critical success instead.</p>"
        },
        "rules": [
            {
                "adjustment": {
                    "success": "one-degree-better"
                },
                "key": "AdjustDegreeOfSuccess",
                "predicate": {
                    "all": [
                        "emotion"
                    ]
                },
                "selector": "saving-throw",
                "type": "skill"
            }
        ],
        "source": {
            "value": ""
        },
        "traits": {
            "custom": "",
            "rarity": "common",
            "value": []
        }
    },
    "effects": [],
    "flags": {},
    "img": "systems/pf2e/icons/features/ancestry/gutsy-halfling.webp",
    "name": "Gutsy Halfling",
    "type": "heritage"
}
