{
    "_id": "J0eAmntxXywr9sGt",
    "data": {
        "ancestry": {
            "name": "Automaton",
            "uuid": "Compendium.pf2e.ancestries.kYsBAJ103T44agJF"
        },
        "description": {
            "value": "<p>The chamber housing your core has a more direct connection to the rest of your humanoid shape, allowing you to tap into your core's magical energy. You gain one cantrip from the arcane spell list. You can cast this spell as an arcane innate spell at will. A cantrip is heightened to a spell level equal to half your level rounded up.</p>"
        },
        "rules": [],
        "source": {
            "value": "Pathfinder Guns & Gears"
        },
        "traits": {
            "custom": "",
            "rarity": "common",
            "value": []
        }
    },
    "effects": [],
    "flags": {},
    "img": "systems/pf2e/icons/default-icons/heritage.svg",
    "name": "Mage Automaton",
    "type": "heritage"
}
