{
    "_id": "ptpK6H1rM4Bu3ry4",
    "data": {
        "ancestry": {
            "name": "Tengu",
            "uuid": "Compendium.pf2e.ancestries.18xDKYPDBLEv2myX"
        },
        "description": {
            "value": "<p>You come from a line of tengu ascetics, leaving you with a link to the spirits of the world and the Great Beyond. You can cast the <em>@Compendium[pf2e.spells-srd.Disrupt Undead]{Disrupt Undead}</em> cantrip as a primal innate spell at will. A cantrip is heightened to a spell level equal to half your level rounded up.</p>\n<p>Each time you cast a spell from a tengu heritage or ancestry feat, you can decide whether it's a divine or primal spell.</p>"
        },
        "rules": [],
        "source": {
            "value": ""
        },
        "traits": {
            "custom": "",
            "rarity": "common",
            "value": []
        }
    },
    "effects": [],
    "flags": {},
    "img": "systems/pf2e/icons/features/ancestry/mountainkeeper-tengu.webp",
    "name": "Mountainkeeper Tengu",
    "type": "heritage"
}
