{
    "_id": "8wGUh9RsMUamOKjh",
    "data": {
        "ancestry": {
            "name": "Goblin",
            "uuid": "Compendium.pf2e.ancestries.sQfjTMDaZbT9DThq"
        },
        "description": {
            "value": "<p>You have a powerful tail, likely because you descend from a community of monkey goblins. You gain a +2 circumstance bonus to Athletics checks to @Compendium[pf2e.actionspf2e.Climb]{Climb}, you gain @Compendium[pf2e.feats-srd.Combat Climber]{Combat Climber} as a bonus feat, and you reduce the number of free hands required to climb or @Compendium[pf2e.actionspf2e.Trip]{Trip} by one.</p>"
        },
        "rules": [
            {
                "key": "FlatModifier",
                "label": "Tailed Goblin (Climb)",
                "predicate": {
                    "all": [
                        "action:climb"
                    ]
                },
                "selector": "athletics",
                "type": "circumstance",
                "value": 2
            },
            {
                "key": "GrantItem",
                "uuid": "Compendium.pf2e.feats-srd.Combat Climber"
            }
        ],
        "source": {
            "value": ""
        },
        "traits": {
            "custom": "",
            "rarity": "common",
            "value": []
        }
    },
    "effects": [],
    "flags": {},
    "img": "systems/pf2e/icons/features/ancestry/tailed-goblin.webp",
    "name": "Tailed Goblin",
    "type": "heritage"
}
