{
    "_id": "sGzhnQpgWErX1bmx",
    "data": {
        "ancestry": {
            "name": "Goloma",
            "uuid": "Compendium.pf2e.ancestries.c4secsSNG2AO7I5i"
        },
        "description": {
            "value": "<p>You've learned to be aware of not just obvious physical dangers, but also noticeable magical threats. You can cast the <em>@Compendium[pf2e.spells-srd.Detect Magic]{Detect Magic}</em> cantrip as an arcane innate spell at will. A cantrip is heightened to a spell level equal to half your level rounded up. In addition, your awareness allows you to notice magical traps easier than others. Your proficiency rank in Perception is considered one step better when attempting to detect magical traps. (Trained is considered expert, expert is considered master, and master is considered legendary).</p>"
        },
        "rules": [],
        "source": {
            "value": ""
        },
        "traits": {
            "custom": "",
            "rarity": "common",
            "value": []
        }
    },
    "effects": [],
    "flags": {},
    "img": "systems/pf2e/icons/default-icons/heritage.svg",
    "name": "Vigilant Goloma",
    "type": "heritage"
}
