{
    "_id": "D0ltNUJnN7UjJpA1",
    "data": {
        "description": {
            "value": "<p>Once per day, you can draw upon your familiar's innate magic to replenish your own. You can cast one innate spell gained from an ancestry feat that you have already cast today. You must still Cast the Spell and meet the spell's other requirements.</p>"
        },
        "duration": {
            "expiry": "turn-start",
            "sustained": false,
            "unit": "unlimited",
            "value": -1
        },
        "level": {
            "value": 1
        },
        "rules": [],
        "source": {
            "value": "Pathfinder Advanced Player's Guide"
        },
        "start": {
            "initiative": null,
            "value": 0
        },
        "target": null,
        "tokenIcon": {
            "show": false
        },
        "traits": {
            "custom": "",
            "rarity": "common",
            "value": []
        }
    },
    "effects": [],
    "flags": {},
    "img": "systems/pf2e/icons/actions/Passive.webp",
    "name": "Innate Surge",
    "type": "effect"
}
