{
    "_id": "FcQQLMAJMgOLjnSv",
    "data": {
        "description": {
            "value": "<p>Choose two of the following: acid, cold, electricity, fire, poison, or sonic. Your familiar gains resistance equal to half your level against the chosen damage types.</p>"
        },
        "duration": {
            "expiry": "turn-start",
            "sustained": false,
            "unit": "unlimited",
            "value": -1
        },
        "level": {
            "value": 1
        },
        "rules": [],
        "source": {
            "value": ""
        },
        "start": {
            "initiative": null,
            "value": 0
        },
        "target": null,
        "tokenIcon": {
            "show": false
        },
        "traits": {
            "custom": "",
            "rarity": "common",
            "value": []
        }
    },
    "effects": [],
    "flags": {},
    "img": "systems/pf2e/icons/actions/Passive.webp",
    "name": "Resistance",
    "type": "effect"
}
