{
    "_id": "KT7HKL7vbZEwbzX4",
    "content": "<h1>Green Faith</h1><p>While the Green Faith is practiced differently from one believer to another, especially across its various orders, its adherents share a universal reverence for the natural world and a commitment to preserving it. While each order's practitioners may be drawn to a particular element, season, creature, or natural occurrence, all followers respect the sanctity and importance of every aspect of nature.</p>\n<p>Many cycles have passed since the Green Faith's fabled founders contended over which expression of natural power was supreme. Just as the legend speaks of their ultimate unity, those who now follow the Green Faith and view nature as sacred understand the interconnectedness of all beings, recognizing that harmony is possible only through balance, and that the cycles of nature are both delicate and infinite. Advocates of the Green Faith therefore fall into a neutral alignment, for they understand that by naming one thing, its opposite is also created; they walk the path of balance between death and rebirth, light and shadow, growth and decay.</p>\n<p><strong>Edicts</strong> guide civilization to grow in harmony with nature, preserve areas of natural wilderness, protect endangered species</p>\n<p><strong>Anathema</strong> cause damage to natural settings, kill animals for reasons other than self-defense or sustenance, allow abuse of natural resources</p>\n<p><strong>Areas of Concern</strong> veneration of the natural world</p>\n<p><strong>Follower Alignments</strong> NG, LN, N, CN, NE</p>",
    "flags": {},
    "name": "Green Faith",
    "permission": {
        "default": 0
    }
}
