{
    "_id": "JndhOIHnQoMwnsw3",
    "content": "<h1>The Godclaw [LN]</h1><p>The Hellknight Order of the Godclaw reveres a pantheon of five deities: @Compendium[pf2e.deities.Iomedae]{Iomedae} and @Compendium[pf2e.deities.Torag]{Torag} are seen as Hellknights (concerned with offensive and defensive combat, respectively), @Compendium[pf2e.deities.Irori]{Irori} as the epitome of emotionless discipline, @Compendium[pf2e.deities.Abadar]{Abadar} as a keeper of laws, and @Compendium[pf2e.deities.Asmodeus]{Asmodeus} as a strategist king. Depictions of these deities as part of the Godclaw differ from traditional images, with the deities portrayed as stern, armored paragons of law. Though some members of the Order of the Godclaw dedicate themselves to individual gods, many take the whole pantheon as their patron, receiving spells despite their unorthodox (perhaps even heretical) beliefs.</p>\n<p><strong>Edicts</strong> eliminate chaos at its root, be an exemplar of order (worthy of not one, but five), seek the universal laws that transcend individual faiths</p>\n<p><strong>Anathema</strong> rest when there is lawlessness to fight, believe you know or understand more than the pantheon</p>\n<p><strong>Areas of Concern</strong> discipline, laws, order, strategy</p>\n<p><strong>Follower Alignments</strong> LG, LN, LE</p>\n<p><strong>Pantheon Members</strong> <u></u>@Compendium[pf2e.deities.Abadar]{Abadar}, @Compendium[pf2e.deities.Asmodeus]{Asmodeus}, @Compendium[pf2e.deities.Iomedae]{Iomedae}, @Compendium[pf2e.deities.Irori]{Irori}, @Compendium[pf2e.deities.Torag]{Torag}</p><h2>Devotee Benefits</h2><div><div><strong>Divine Ability</strong> Strength or Intelligence</div><div><strong>Divine Font</strong> harm or heal</div><div><strong>Divine Skill</strong> Society</div><div><strong>Favored Weapon</strong> morningstar</div><div><strong>Domains</strong> perfection, protection, tyranny, zeal</div><div><strong>Alternate Domains</strong> duty</div><div><strong>Cleric Spells</strong> 1st: phantom pain, 4th: fire shield, 6th: dominate</div></div>",
    "flags": {},
    "name": "The Godclaw",
    "permission": {
        "default": 0
    }
}
