{
    "_id": "4bEPoujxhYdUyUOg",
    "content": "<h1>Ydersius [CE]</h1><p>The serpentfolk god is not dead, but in his decapitated state, he might as well be. Reduced to a feral, animalistic existence, Ydersius is even less aware of his legacy than the lowest of the aapoph. Ydersius's symbol is a snake's skull surrounded by a skeletal ouroboros.</p>\n<p><strong>Edicts</strong> seek to return Ydersius to life, fulfill your passions, conquer your foes with no mercy, achieve glory for serpentkind</p>\n<p><strong>Anathema</strong> put the needs of others above those of serpentfolk, aid the spawn of Azlant</p>\n<p><strong>Follower Alignments</strong> LE, NE, CE</p><h2>Devotee Benefits</h2><p><strong>Divine Font</strong> harm</p>\n<p><strong>Divine Skill</strong> Deception</p>\n<p><strong>Favored Weapon</strong> dagger</p>\n<p><strong>Domains</strong> ambition, indulgence, might, zeal</p>\n<p><strong>Cleric Spells</strong> 1st: <em>magic fang</em>, 5th: <em>cloudkill</em>, 6th: <em>purple worm sting</em></p>",
    "flags": {},
    "name": "Ydersius",
    "permission": {
        "default": 0
    }
}
