{
    "_id": "1BU8deh48XZFclWl",
    "content": "<p><strong>Deities</strong> @Compendium[pf2e.deities.Arundhat]{Arundhat}, @Compendium[pf2e.deities.Atreia]{Atreia}, @Compendium[pf2e.deities.Bolka]{Bolka}, @Compendium[pf2e.deities.Chamidu]{Chamidu}, @Compendium[pf2e.deities.Green Man]{Green Man}, @Compendium[pf2e.deities.Isis]{Isis}, @Compendium[pf2e.deities.Korada]{Korada}, @Compendium[pf2e.deities.Osiris]{Osiris}, @Compendium[pf2e.deities.Pharasma]{Pharasma}, @Compendium[pf2e.deities.Qi Zhong]{Qi Zhong}, @Compendium[pf2e.deities.Sarenrae]{Sarenrae}, @Compendium[pf2e.deities.Sekhmet]{Sekhmet}, @Compendium[pf2e.deities.Selket]{Selket}, @Compendium[pf2e.deities.Shei]{Shei}, @Compendium[pf2e.deities.Stag Mother of the Forest of Stones]{Stag Mother of the Forest of Stones}, @Compendium[pf2e.deities.The Prismatic Ray]{The Prismatic Ray}, @Compendium[pf2e.deities.Tlehar]{Tlehar}, @Compendium[pf2e.deities.Wards of the Pharaoh]{Wards of the Pharaoh}</p>\n<p><strong>Domain Spell</strong> @Compendium[pf2e.spells-srd.Healer's Blessing]{Healer's Blessing}; <strong>Advanced Domain Spell</strong> @Compendium[pf2e.spells-srd.Rebuke Death]{Rebuke Death}</p>\n<p>Your healing magic is particularly potent.</p>",
    "flags": {},
    "name": "Healing Domain",
    "permission": {
        "default": 0
    }
}
