{
    "_id": "uy8GUGIOmEUNqIhH",
    "content": "<p><strong>Deities</strong> @Compendium[pf2e.deities.Achaekek]{Achaekek}, @Compendium[pf2e.deities.Ahriman]{Ahriman}, @Compendium[pf2e.deities.Asmodeus]{Asmodeus}, @Compendium[pf2e.deities.Baalzebul]{Baalzebul}, @Compendium[pf2e.deities.Bastet]{Bastet}, @Compendium[pf2e.deities.Belial]{Belial}, @Compendium[pf2e.deities.Besmara]{Besmara}, @Compendium[pf2e.deities.Calistria]{Calistria}, @Compendium[pf2e.deities.Chaldira]{Chaldira}, @Compendium[pf2e.deities.Dhalavei]{Dhalavei}, @Compendium[pf2e.deities.Droskar]{Droskar}, @Compendium[pf2e.deities.Erecura]{Erecura}, @Compendium[pf2e.deities.Grandmother Spider]{Grandmother Spider}, @Compendium[pf2e.deities.Lahkgya]{Lahkgya}, @Compendium[pf2e.deities.Lamashtu]{Lamashtu}, @Compendium[pf2e.deities.Lao Shu Po]{Lao Shu Po}, @Compendium[pf2e.deities.Mahathallah]{Mahathallah}, @Compendium[pf2e.deities.Nivi Rhombodazzle]{Nivi Rhombodazzle}, @Compendium[pf2e.deities.Norgorber]{Norgorber}, @Compendium[pf2e.deities.Nyarlathotep (Haunter in the Dark)]{Nyarlathotep (Haunter in the Dark)}, @Compendium[pf2e.deities.Nyarlathotep (The Crawling Chaos)]{Nyarlathotep (The Crawling Chaos)}, @Compendium[pf2e.deities.Pazuzu]{Pazuzu}, @Compendium[pf2e.deities.Shax]{Shax}, @Compendium[pf2e.deities.Sifkesh]{Sifkesh}, @Compendium[pf2e.deities.Sivanah]{Sivanah}, @Compendium[pf2e.deities.Sun Wukong]{Sun Wukong}, @Compendium[pf2e.deities.Thamir]{Thamir}, @Compendium[pf2e.deities.The Lantern King]{The Lantern King}, @Compendium[pf2e.deities.Yaezhing]{Yaezhing}, @Compendium[pf2e.deities.Ydajisk]{Ydajisk}</p>\n<p><strong>Domain Spell</strong> @Compendium[pf2e.spells-srd.Sudden Shift]{Sudden Shift}; <strong>Advanced Domain Spell</strong> @Compendium[pf2e.spells-srd.Trickster's Twin]{Trickster's Twin}</p>\n<p>You deceive others and cause mischief.</p>",
    "flags": {},
    "name": "Trickery Domain",
    "permission": {
        "default": 0
    }
}
