{
    "_id": "4hFeaF4MlqIHb6gb",
    "data": {
        "actionCategory": {
            "value": ""
        },
        "actionType": {
            "value": "passive"
        },
        "actions": {
            "value": null
        },
        "description": {
            "value": "<p>Your lineage traces back to the realm of Elysium, and you can harness its magic using this connection. You can cast <em>@Compendium[pf2e.spells-srd.Glitterdust]{Glitterdust}</em> and <em>@Compendium[pf2e.spells-srd.Remove Paralysis]{Remove Paralysis}</em> each once per day as 2nd-level divine innate spells.</p>"
        },
        "featType": {
            "value": "ancestry"
        },
        "level": {
            "value": 9
        },
        "location": "",
        "prerequisites": {
            "value": [
                {
                    "value": "Musetouched"
                }
            ]
        },
        "rules": [],
        "source": {
            "value": "Pathfinder Advanced Player's Guide"
        },
        "traits": {
            "custom": "",
            "rarity": "common",
            "selected": {
                "aasimar": "Aasimar"
            },
            "value": [
                "aasimar"
            ]
        }
    },
    "effects": [],
    "flags": {},
    "img": "systems/pf2e/icons/features/feats/feats.webp",
    "name": "Azata Magic",
    "type": "feat"
}
