{
    "_id": "tDWc2LQNl0Op1Auq",
    "data": {
        "actionCategory": {
            "value": ""
        },
        "actionType": {
            "value": "action"
        },
        "actions": {
            "value": 1
        },
        "description": {
            "value": "<p><strong>Requirements</strong> You are wielding a @Compendium[pf2e.equipment-srd.Buckler]{Buckler}.</p>\n<hr />\n<p>You spin your buckler defensively toward every attack. While you are in this stance, you constantly have your buckler raised as if you'd used @Compendium[pf2e.actionspf2e.Raise a Shield]{Raise a Shield}, as long as you meet that action's requirements.</p>"
        },
        "featType": {
            "value": "class"
        },
        "level": {
            "value": 10
        },
        "prerequisites": {
            "value": []
        },
        "rules": [],
        "source": {
            "value": "Pathfinder Advanced Player's Guide"
        },
        "traits": {
            "custom": "",
            "rarity": "common",
            "value": [
                "stance",
                "swashbuckler"
            ]
        }
    },
    "effects": [],
    "flags": {},
    "img": "systems/pf2e/icons/features/feats/feats.webp",
    "name": "Buckler Dance",
    "type": "feat"
}
