{
    "_id": "sJ7WTLDwAbIA9Elc",
    "data": {
        "actionCategory": {
            "value": ""
        },
        "actionType": {
            "value": "passive"
        },
        "actions": {
            "value": null
        },
        "description": {
            "value": "<p>Fire fascinates you. Your spells and alchemical items that deal fire damage gain a status bonus to damage equal to half the spell's level or one-quarter the item's level (minimum 1). You also gain a +1 status bonus to any @Compendium[pf2e.conditionitems.Persistent Damage]{Persistent Fire Damage} you deal.</p>"
        },
        "featType": {
            "value": "ancestry"
        },
        "level": {
            "value": 1
        },
        "prerequisites": {
            "value": []
        },
        "rules": [
            {
                "key": "Note",
                "predicate": {
                    "all": [
                        "fire"
                    ]
                },
                "selector": "spell-damage",
                "text": "<p class='compact-text'><strong>{item|name}</strong> Your spells that deal fire damage gain a status bonus to damage equal to half the spell's level (minimum 1). You also gain a +1 status bonus to any @Compendium[pf2e.conditionitems.Persistent Damage]{Persistent Fire Damage} you deal.</p>"
            },
            {
                "key": "Note",
                "predicate": {
                    "all": [
                        "alchemical",
                        "fire"
                    ]
                },
                "selector": "damage",
                "text": "<p class='compact-text'><strong>{item|name}</strong> Your alchemical items that deal fire damage gain a status bonus to damage equal to one-quarter the item's level (minimum 1). You also gain a +1 status bonus to any @Compendium[pf2e.conditionitems.Persistent Damage]{Persistent Fire Damage} you deal.</p>"
            }
        ],
        "source": {
            "value": ""
        },
        "traits": {
            "custom": "",
            "rarity": "common",
            "value": [
                "goblin"
            ]
        }
    },
    "effects": [],
    "flags": {},
    "img": "systems/pf2e/icons/features/feats/feats.webp",
    "name": "Burn It!",
    "type": "feat"
}
