{
    "_id": "eVn6hBjNjTB4liKw",
    "data": {
        "actionCategory": {
            "value": ""
        },
        "actionType": {
            "value": "passive"
        },
        "actions": {
            "value": null
        },
        "description": {
            "value": "<p>You bear the favor and blessings of @Compendium[pf2e.deities.Lamashtu]{Lamashtu}, the Mother of Monsters. She has bestowed a mutation upon you, granting you the benefits of another heritage. Choose one goblin heritage that you do not already have; you gain that heritage and its benefits.</p>"
        },
        "featType": {
            "value": "ancestry"
        },
        "level": {
            "value": 5
        },
        "prerequisites": {
            "value": [
                {
                    "value": "worshipper of Lamashtu"
                }
            ]
        },
        "rules": [],
        "source": {
            "value": "Pathfinder Lost Omens: Character Guide"
        },
        "traits": {
            "custom": "",
            "rarity": "common",
            "value": [
                "goblin"
            ]
        }
    },
    "effects": [],
    "flags": {},
    "img": "systems/pf2e/icons/features/feats/feats.webp",
    "name": "Chosen of Lamashtu",
    "type": "feat"
}
