{
    "_id": "o1Vo4PvU09UY8sj7",
    "data": {
        "actionCategory": {
            "value": ""
        },
        "actionType": {
            "value": "passive"
        },
        "actions": {
            "value": null
        },
        "description": {
            "value": "<p>You've achieved perfect magical and physical balance, allowing magic to flow into and through you more easily.</p>\n<p>You can recover 3 Focus Points when you @Compendium[pf2e.actionspf2e.Refocus]{Refocus} instead of 1 if you have spent at least 3 Focus Points since the last time you Refocused.</p>"
        },
        "featType": {
            "value": "class"
        },
        "level": {
            "value": 18
        },
        "location": "",
        "prerequisites": {
            "value": [
                {
                    "value": "Conflux Focus"
                }
            ]
        },
        "rules": [],
        "source": {
            "value": ""
        },
        "traits": {
            "custom": "",
            "rarity": "common",
            "value": [
                "magus"
            ]
        }
    },
    "effects": [],
    "flags": {},
    "img": "systems/pf2e/icons/features/feats/feats.webp",
    "name": "Conflux Wellspring",
    "type": "feat"
}
