{
    "_id": "M2V1vqAziOkWV30B",
    "data": {
        "actionCategory": {
            "value": ""
        },
        "actionType": {
            "value": "action"
        },
        "actions": {
            "value": 1
        },
        "description": {
            "value": "<p><strong>Frequency</strong> A number of times per day equal to your number of class feats from the Red Mantis assassin archetype</p>\n<hr />\n<p>You swathe yourself in a veil of red mist for 1 minute. While the shroud is active, you gain fast healing equal to half your level. You can Interact with your shroud, swirling it around you, to gain a +1 circumstance bonus to AC until the beginning of your next turn. Finally, if you die while the shroud is active, you can choose to have your entire body vanish into red mist, leaving behind only your gear; you make this choice when you activate Crimson Shroud.</p>\n<p>@Compendium[pf2e.feat-effects.Effect: Crimson Shroud]{Effect: Crimson Shroud}</p>"
        },
        "featType": {
            "value": "archetype"
        },
        "level": {
            "value": 6
        },
        "location": "",
        "prerequisites": {
            "value": [
                {
                    "value": "Red Mantis Assassin Dedication"
                }
            ]
        },
        "rules": [],
        "source": {
            "value": "Pathfinder Lost Omens: World Guide"
        },
        "traits": {
            "custom": "",
            "rarity": "common",
            "value": [
                "archetype",
                "healing",
                "magical",
                "necromancy"
            ]
        }
    },
    "effects": [],
    "flags": {},
    "img": "systems/pf2e/icons/features/feats/feats.webp",
    "name": "Crimson Shroud",
    "type": "feat"
}
