{
    "_id": "zWEu9xuAxBnPoSrv",
    "data": {
        "actionCategory": {
            "value": ""
        },
        "actionType": {
            "value": "passive"
        },
        "actions": {
            "value": null
        },
        "description": {
            "value": "<p>Your internal organs and blood vessels have shifted and changed, and even you don't know precisely where in your body they are. You gain resistance to precision damage equal to 2 + your number of class feats from the oozemorph archetype. The DC of your flat checks to recover from persistent bleed damage is 13, rather than 15.</p>"
        },
        "featType": {
            "value": "archetype"
        },
        "level": {
            "value": 4
        },
        "location": "",
        "prerequisites": {
            "value": [
                {
                    "value": "Oozemorph Dedication"
                }
            ]
        },
        "rules": [
            {
                "key": "ActiveEffectLike",
                "mode": "add",
                "path": "data.custom.modifiers.oozemorphDedicationCount",
                "value": 1
            },
            {
                "key": "Resistance",
                "type": "precision",
                "value": "@actor.data.data.custom.modifiers.oozemorphDedicationCount+2"
            }
        ],
        "source": {
            "value": "Pathfinder Adventure: The Slithering"
        },
        "traits": {
            "custom": "",
            "rarity": "common",
            "selected": {
                "archetype": "Archetype"
            },
            "value": [
                "archetype"
            ]
        }
    },
    "effects": [],
    "flags": {},
    "img": "systems/pf2e/icons/features/feats/feats.webp",
    "name": "Disturbing Defense",
    "type": "feat"
}
