{
    "_id": "4UXyMtXLaOxuH6Js",
    "data": {
        "actionCategory": {
            "value": ""
        },
        "actionType": {
            "value": "passive"
        },
        "actions": {
            "value": null
        },
        "description": {
            "value": "<p>Your performances are especially distracting, allowing your allies to sneak away with ease.</p>\n<p>When you @Compendium[pf2e.actionspf2e.Aid]{Aid} an ally who is trying to @Compendium[pf2e.actionspf2e.Create a Diversion]{Create a Diversion}, instead of the usual effects of Aid, you can roll a Performance check and use that result to determine the outcome of the diversion, instead of the ally rolling a Deception check.</p>"
        },
        "featType": {
            "value": "skill"
        },
        "level": {
            "value": 2
        },
        "prerequisites": {
            "value": [
                {
                    "value": "expert in Performance"
                }
            ]
        },
        "rules": [],
        "source": {
            "value": "Pathfinder Advanced Player's Guide"
        },
        "traits": {
            "custom": "",
            "rarity": "common",
            "value": [
                "general",
                "skill"
            ]
        }
    },
    "effects": [],
    "flags": {},
    "img": "systems/pf2e/icons/features/feats/feats.webp",
    "name": "Distracting Performance",
    "type": "feat"
}
