{
    "_id": "IUVzB39pRVyBFOEx",
    "data": {
        "actionCategory": {
            "value": ""
        },
        "actionType": {
            "value": "reaction"
        },
        "actions": {
            "value": null
        },
        "description": {
            "value": "<p><strong>Trigger</strong> An enemy is about to damage you with cold, electricity, or fire, or with a spell that has the air, earth, fire, or water trait.</p>\n<hr />\n<p>You call upon the corresponding elements of your suli heritage to resist the effect. You gain resistance 5 against the triggering damage.</p>"
        },
        "featType": {
            "value": "ancestry"
        },
        "level": {
            "value": 5
        },
        "location": "",
        "prerequisites": {
            "value": []
        },
        "rules": [],
        "source": {
            "value": "Pathfinder Lost Omens: Ancestry Guide"
        },
        "traits": {
            "custom": "",
            "rarity": "common",
            "value": [
                "suli"
            ]
        }
    },
    "effects": [],
    "flags": {},
    "img": "systems/pf2e/icons/features/feats/feats.webp",
    "name": "Elemental Bulwark",
    "type": "feat"
}
