{
    "_id": "oaqkhZ6c0Dbk78wi",
    "data": {
        "actionCategory": {
            "value": "offensive"
        },
        "actionType": {
            "value": "passive"
        },
        "actions": {
            "value": null
        },
        "description": {
            "value": "<p>With a combination of your poison glands and herbal concoctions, you can consistently deliver venomous attacks when you hit an enemy's weak points. When you critically hit using a Strike with a weapon or unarmed attack and deal slashing or piercing damage with that Strike, you deal an additional [[/r {1d4}[persistent,poison]]] @Compendium[pf2e.conditionitems.Persistent Damage]{Persistent Poison Damage} to your target.</p>"
        },
        "featType": {
            "value": "ancestry"
        },
        "level": {
            "value": 13
        },
        "location": "",
        "prerequisites": {
            "value": []
        },
        "rules": [
            {
                "key": "Note",
                "outcome": [
                    "criticalSuccess"
                ],
                "selector": "damage",
                "text": "<p class='compact-text'><strong>Envenomed Edge</strong> When you critically hit using a Strike with a weapon or unarmed attack and deal slashing or piercing damage with that Strike, you deal an additional [[/r {1d4}[persistent,poison]]] @Compendium[pf2e.conditionitems.Persistent Damage]{Persistent Poison Damage} to your target.</p>"
            }
        ],
        "source": {
            "value": "Pathfinder Lost Omens: The Mwangi Expanse"
        },
        "traits": {
            "custom": "",
            "rarity": "common",
            "value": [
                "grippli"
            ]
        }
    },
    "effects": [],
    "flags": {},
    "img": "systems/pf2e/icons/default-icons/feats.webp",
    "name": "Envenomed Edge",
    "type": "feat"
}
