{
    "_id": "QhKLXGJPLZaX1qDp",
    "data": {
        "actionCategory": {
            "value": ""
        },
        "actionType": {
            "value": "passive"
        },
        "actions": {
            "value": null
        },
        "description": {
            "value": "<p>You learn more powerful spells to enchant and deceive. You learn a 4th-level occult spell. At 12th level, you learn a 5th-level spell, and at 14th level, you learn a 6th-level spell. Each of these spells must come from either the enchantment or illusion school. You Cast these Spells as occult innate spells. You become an expert with spell attack rolls and spell DCs for occult spells.</p>"
        },
        "featType": {
            "value": "archetype"
        },
        "level": {
            "value": 10
        },
        "location": "",
        "prerequisites": {
            "value": [
                {
                    "value": "Basic Captivator Spellcasting"
                }
            ]
        },
        "rules": [],
        "source": {
            "value": ""
        },
        "traits": {
            "custom": "",
            "rarity": "common",
            "value": [
                "archetype"
            ]
        }
    },
    "effects": [],
    "flags": {},
    "img": "systems/pf2e/icons/default-icons/feats.webp",
    "name": "Expert Captivator Spellcasting",
    "type": "feat"
}
