{
    "_id": "yWq2EAUJ6MCj2UMG",
    "data": {
        "actionCategory": {
            "value": ""
        },
        "actionType": {
            "value": "passive"
        },
        "actions": {
            "value": null
        },
        "description": {
            "value": "<p>Your senses advance to match those of your animal aspect. You gain one of the following senses available to your inherent animal: echolocation (imprecise) 30 feet or tremorsense (imprecise) 30 feet.</p>\n<p>If your inherent animal doesn't typically have a specific type of sense, you can't gain the sense with this feat.</p>\n<hr />\n<p><strong>Special</strong> You can select this feat multiple times, either choosing a different sense or improving an imprecise sense granted by this feat to a precise sense.</p>"
        },
        "featType": {
            "value": "ancestry"
        },
        "level": {
            "value": 5
        },
        "location": "",
        "prerequisites": {
            "value": []
        },
        "rules": [
            {
                "acuity": "imprecise",
                "key": "Sense",
                "label": "PF2E.SensesTremorsense",
                "range": 30,
                "selector": "tremorsense"
            }
        ],
        "source": {
            "value": ""
        },
        "traits": {
            "custom": "",
            "rarity": "common",
            "value": [
                "beastkin"
            ]
        }
    },
    "effects": [],
    "flags": {},
    "img": "systems/pf2e/icons/features/feats/feats.webp",
    "name": "Greater Animal Senses (Precise Tremorsense)",
    "type": "feat"
}
