{
    "_id": "07jxXvRZ8nD3JLF4",
    "data": {
        "actionCategory": {
            "value": ""
        },
        "actionType": {
            "value": "passive"
        },
        "actions": {
            "value": null
        },
        "description": {
            "value": "<p>Under your care, your mount has realized its innate potential. The mount you gained through the divine ally class feature is now a nimble or savage animal companion. During an encounter, even if you don't use the Command an Animal action, your mount can still use 1 action on your turn to Stride or Strike.</p>"
        },
        "featType": {
            "value": "class"
        },
        "level": {
            "value": 10
        },
        "prerequisites": {
            "value": [
                {
                    "value": "divine ally (steed)"
                },
                {
                    "value": "Loyal Warhorse"
                }
            ]
        },
        "rules": [],
        "source": {
            "value": "Pathfinder Core Rulebook"
        },
        "traits": {
            "custom": "",
            "rarity": "common",
            "value": [
                "champion"
            ]
        }
    },
    "effects": [],
    "flags": {},
    "img": "systems/pf2e/icons/features/feats/feats.webp",
    "name": "Imposing Destrier",
    "type": "feat"
}
