{
    "_id": "5tlTRfyPXkGS9Coq",
    "data": {
        "actionCategory": {
            "value": "offensive"
        },
        "actionType": {
            "value": "action"
        },
        "actions": {
            "value": 2
        },
        "description": {
            "value": "<p><strong>Requirements</strong> You're wielding a staff.</p>\n<hr />\n<p>Your spell unwinds the structure of your staff to make it exceptionally long, or even separate it into shards held together by magical power.</p>\n<p>Make a Spellstrike with a staff, with a spell that isn't a cantrip or focus spell. Increase the staff's reach by 5 feet × the spell's level.</p>"
        },
        "featType": {
            "value": "class"
        },
        "level": {
            "value": 10
        },
        "location": "",
        "prerequisites": {
            "value": [
                {
                    "value": "Spellstrike"
                },
                {
                    "value": "twisting tree hybrid study"
                }
            ]
        },
        "rules": [],
        "source": {
            "value": ""
        },
        "traits": {
            "custom": "",
            "rarity": "common",
            "value": [
                "arcane",
                "magus",
                "transmutation"
            ]
        }
    },
    "effects": [],
    "flags": {},
    "img": "systems/pf2e/icons/features/feats/feats.webp",
    "name": "Lunging Spellstrike",
    "type": "feat"
}
