{
    "_id": "oGOxrqT7DHI43SVk",
    "data": {
        "actionCategory": {
            "value": ""
        },
        "actionType": {
            "value": "passive"
        },
        "actions": {
            "value": null
        },
        "description": {
            "value": "<p>You've trained with your shield to defend both yourself and your mount. When you @Compendium[pf2e.actionspf2e.Raise a Shield]{Raise a Shield} while mounted, both you and your mount gain the shield's circumstance bonus to AC.</p>\n<p>If you have the @Compendium[pf2e.feats-srd.Shield Block]{Shield Block} reaction, you can use it in response to your mount taking damage, as long as you're riding your mount. If you do, the shield prevents your mount from taking damage instead of preventing you from taking damage, following the normal rules for Shield Block.</p>"
        },
        "featType": {
            "value": "archetype"
        },
        "level": {
            "value": 6
        },
        "prerequisites": {
            "value": [
                {
                    "value": "Cavalier Dedication"
                }
            ]
        },
        "rules": [],
        "source": {
            "value": "Pathfinder Advanced Player's Guide"
        },
        "traits": {
            "custom": "",
            "rarity": "common",
            "value": [
                "archetype"
            ]
        }
    },
    "effects": [],
    "flags": {},
    "img": "systems/pf2e/icons/features/feats/feats.webp",
    "name": "Mounted Shield",
    "type": "feat"
}
