{
    "_id": "PcDvw2vWTzBEIX7k",
    "data": {
        "actionCategory": {
            "value": ""
        },
        "actionType": {
            "value": "passive"
        },
        "actions": {
            "value": null
        },
        "description": {
            "value": "<p>Your training against necromantic effects allows you to escape the worst of their touch. If you roll a success on a saving throw against a necromancy effect, you get a critical success instead; if you roll a critical failure on such a save, you get a failure instead.</p>"
        },
        "featType": {
            "value": "archetype"
        },
        "level": {
            "value": 8
        },
        "location": "",
        "prerequisites": {
            "value": [
                {
                    "value": "Necromantic Resistance"
                }
            ]
        },
        "rules": [
            {
                "adjustment": {
                    "criticalFailure": "one-degree-better",
                    "success": "one-degree-better"
                },
                "key": "AdjustDegreeOfSuccess",
                "predicate": {
                    "all": [
                        "necromancy"
                    ]
                },
                "selector": "saving-throw",
                "type": "save"
            },
            {
                "key": "Note",
                "predicate": {
                    "all": [
                        "necromancy"
                    ]
                },
                "selector": "saving-throw",
                "text": "<p class='compact-text'><strong>Necromantic Tenacity</strong> If you roll a success on a saving throw against a necromancy effect, you get a critical success instead; if you roll a critical failure on such a save, you get a failure instead.</p>"
            }
        ],
        "source": {
            "value": "Pathfinder Lost Omens: World Guide"
        },
        "traits": {
            "custom": "",
            "rarity": "common",
            "value": [
                "archetype"
            ]
        }
    },
    "effects": [],
    "flags": {},
    "img": "systems/pf2e/icons/features/feats/feats.webp",
    "name": "Necromantic Tenacity",
    "type": "feat"
}
