{
    "_id": "18UQefmhcNq6tFav",
    "data": {
        "actionCategory": {
            "value": ""
        },
        "actionType": {
            "value": "free"
        },
        "actions": {
            "value": null
        },
        "description": {
            "value": "<p><strong>Trigger</strong> You roll initiative or a hazard attacks you.</p>\n<hr />\n<p>Your unwavering soul brings up your defenses as soon as you're in danger. You Manifest your Soulforged Armament.</p>"
        },
        "featType": {
            "value": "archetype"
        },
        "level": {
            "value": 6
        },
        "location": "",
        "prerequisites": {
            "value": [
                {
                    "value": "Soulforger Dedication"
                }
            ]
        },
        "rules": [],
        "source": {
            "value": ""
        },
        "traits": {
            "custom": "",
            "rarity": "common",
            "value": [
                "archetype"
            ]
        }
    },
    "effects": [],
    "flags": {},
    "img": "systems/pf2e/icons/features/feats/feats.webp",
    "name": "Rapid Manifestation",
    "type": "feat"
}
