{
    "_id": "lhSqWHXK1JShUabF",
    "data": {
        "actionCategory": {
            "value": ""
        },
        "actionType": {
            "value": "reaction"
        },
        "actions": {
            "value": null
        },
        "description": {
            "value": "<p><strong>Trigger</strong> You or an ally benefiting from your composition spell would take sonic damage.</p>\n<hr />\n<p>You bring your performance to a sudden, dramatic finish, drowning out other sounds. Your composition spell ends immediately, and all allies that had been benefiting from the spell's effects gain sonic resistance against the triggering damage equal to twice the composition spell's level.</p>"
        },
        "featType": {
            "value": "class"
        },
        "level": {
            "value": 16
        },
        "location": "",
        "prerequisites": {
            "value": [
                {
                    "value": "maestro muse"
                }
            ]
        },
        "rules": [],
        "source": {
            "value": "Pathfinder Advanced Player's Guide"
        },
        "traits": {
            "custom": "",
            "rarity": "common",
            "value": [
                "abjuration",
                "bard",
                "concentrate"
            ]
        }
    },
    "effects": [],
    "flags": {},
    "img": "systems/pf2e/icons/features/feats/feats.webp",
    "name": "Resounding Finale",
    "type": "feat"
}
