{
    "_id": "NIUSBGMmdqhkYtmo",
    "data": {
        "actionCategory": {
            "value": ""
        },
        "actionType": {
            "value": "passive"
        },
        "actions": {
            "value": null
        },
        "description": {
            "value": "<p>Your innate connection to stone makes you adept at moving across uneven surfaces. You can ignore difficult terrain caused by rubble and uneven ground made of stone and earth. In addition, when you use the Acrobatics skill to @Compendium[pf2e.actionspf2e.Balance]{Balance} on narrow surfaces or uneven ground made of stone or earth, you aren't @Compendium[pf2e.conditionitems.Flat-Footed]{Flat-Footed}, and when you roll a success at one of these Acrobatics checks, you get a critical success instead.</p>"
        },
        "featType": {
            "value": "ancestry"
        },
        "level": {
            "value": 1
        },
        "location": "",
        "prerequisites": {
            "value": []
        },
        "rules": [],
        "source": {
            "value": "Pathfinder Core Rulebook"
        },
        "traits": {
            "custom": "",
            "rarity": "common",
            "value": [
                "dwarf"
            ]
        }
    },
    "effects": [],
    "flags": {},
    "img": "systems/pf2e/icons/features/feats/feats.webp",
    "name": "Rock Runner",
    "type": "feat"
}
