{
    "_id": "dWkf6LhYBfBkeyOA",
    "data": {
        "actionCategory": {
            "value": ""
        },
        "actionType": {
            "value": "passive"
        },
        "actions": {
            "value": null
        },
        "description": {
            "value": "<p>Your experience with a specific type of harmful magic makes you more resistant to it. Choose a magical tradition (arcane, divine, occult, or primal). You gain a +1 circumstance bonus to saving throws against spells and effects with that tradition's trait and resistance 5 to all damage from spells and effects with that tradition's trait. The effect must have actually been cast or created with that tradition, rather than simply being on that tradition's spell list.</p>"
        },
        "featType": {
            "value": "archetype"
        },
        "level": {
            "value": 12
        },
        "prerequisites": {
            "value": [
                {
                    "value": "Spellmaster Dedication"
                }
            ]
        },
        "rules": [],
        "source": {
            "value": "Pathfinder Lost Omens: Character Guide"
        },
        "traits": {
            "custom": "",
            "rarity": "common",
            "value": [
                "archetype"
            ]
        }
    },
    "effects": [],
    "flags": {},
    "img": "systems/pf2e/icons/features/feats/feats.webp",
    "name": "Spellmaster's Resilience",
    "type": "feat"
}
