{
    "_id": "VFBQ1MskOascFDNf",
    "data": {
        "actionCategory": {
            "value": ""
        },
        "actionType": {
            "value": "action"
        },
        "actions": {
            "value": 1
        },
        "description": {
            "value": "<p>You transform your fire spells into steam, making them more effective underwater. If your next action is to Cast a Spell with the fire trait, you can cast it underwater. When you do so, it takes the form of scalding steam. Underwater creatures do not gain the normal fire resistance for being underwater against this spell, but they don't light things on fire or cause @Compendium[pf2e.conditionitems.Persistent Damage]{Persistent Fire Damage}, nor do they add other effects that would apply to fire but not steam (at the GM's discretion).</p>"
        },
        "featType": {
            "value": "ancestry"
        },
        "level": {
            "value": 5
        },
        "location": "",
        "prerequisites": {
            "value": []
        },
        "rules": [],
        "source": {
            "value": "Pathfinder Lost Omens: Ancestry Guide"
        },
        "traits": {
            "custom": "",
            "rarity": "common",
            "value": [
                "concentrate",
                "metamagic",
                "undine"
            ]
        }
    },
    "effects": [],
    "flags": {},
    "img": "systems/pf2e/icons/features/feats/feats.webp",
    "name": "Steam Spell",
    "type": "feat"
}
