{
    "_id": "TqODgJL1VS3eokhX",
    "data": {
        "actionCategory": {
            "value": ""
        },
        "actionType": {
            "value": "reaction"
        },
        "actions": {
            "value": null
        },
        "description": {
            "value": "<p><strong>Trigger</strong> A foe ends its movement adjacent to you.</p>\n<hr />\n<p>Attempt an Acrobatics check against the foe's Reflex DC. If you succeed, either Stride to a different space adjacent to the foe or move the foe to a different space adjacent to you.</p>"
        },
        "featType": {
            "value": "class"
        },
        "level": {
            "value": 16
        },
        "prerequisites": {
            "value": [
                {
                    "value": "legendary in Acrobatics"
                }
            ]
        },
        "rules": [],
        "source": {
            "value": "Pathfinder Advanced Player's Guide"
        },
        "traits": {
            "custom": "",
            "rarity": "common",
            "value": [
                "rogue"
            ]
        }
    },
    "effects": [],
    "flags": {},
    "img": "systems/pf2e/icons/features/feats/feats.webp",
    "name": "Swift Elusion",
    "type": "feat"
}
