{
    "_id": "1jZ7f4TJqiFH8Ied",
    "data": {
        "actionCategory": {
            "value": ""
        },
        "actionType": {
            "value": "passive"
        },
        "actions": {
            "value": null
        },
        "description": {
            "value": "<p>A wave of your fan unleashes the fury of the storm. You can Activate your <em>tengu feather fan</em> one additional time per day. Add the 5th-level <em>@Compendium[pf2e.spells-srd.Lightning Bolt]{Lightning Bolt}</em> spell to the spells contained within your fan.</p>"
        },
        "featType": {
            "value": "ancestry"
        },
        "level": {
            "value": 13
        },
        "location": "",
        "prerequisites": {
            "value": [
                {
                    "value": "Wind God's Fan"
                }
            ]
        },
        "rules": [],
        "source": {
            "value": "Pathfinder Lost Omens: Ancestry Guide"
        },
        "traits": {
            "custom": "",
            "rarity": "common",
            "value": [
                "tengu"
            ]
        }
    },
    "effects": [],
    "flags": {},
    "img": "systems/pf2e/icons/features/feats/feats.webp",
    "name": "Thunder God's Fan",
    "type": "feat"
}
