{
    "_id": "2HMvAB6mIVwvwtjT",
    "data": {
        "actionCategory": {
            "value": ""
        },
        "actionType": {
            "value": "free"
        },
        "actions": {
            "value": null
        },
        "description": {
            "value": "<p>Ever inventive, you have discovered increasingly devastating ways for your bombs to impede and hamper your foes.</p>\n<p>When you use @Compendium[pf2e.feats-srd.Debilitating Bomb]{Debilitating Bomb}, add the following to the list you can choose from: @Compendium[pf2e.conditionitems.Enfeebled]{Enfeebled 2}, @Compendium[pf2e.conditionitems.Stupefied]{Stupefied 2}, or -15-foot status penalty to Speeds.</p>\n<p>If you instead apply one of the effects listed in Debilitating Bomb the target avoids the effect only if the result of its saving throw is a critical success.</p>"
        },
        "featType": {
            "value": "class"
        },
        "level": {
            "value": 14
        },
        "location": "",
        "prerequisites": {
            "value": [
                {
                    "value": "Greater Debilitating Bomb"
                }
            ]
        },
        "rules": [
            {
                "key": "Note",
                "predicate": {
                    "all": [
                        "alchemical",
                        "bomb",
                        "debilitating-bomb"
                    ]
                },
                "selector": "attack-roll",
                "text": "<p class='compact-text'><strong>{item|name}</strong> If your bomb hits, the target must succed at a Fortitude save against your Class DC, or suffer one of the following @Compendium[pf2e.feats-srd.True Debilitating Bomb]{effects}. If you apply the effects of @Compendium[pf2e.feats-srd.Debilitating Bomb]{Debilitating Bomb}, the target must critically succeed at its save to avoid the condition.</p>"
            }
        ],
        "source": {
            "value": "Pathfinder Core Rulebook"
        },
        "traits": {
            "custom": "",
            "rarity": "common",
            "value": [
                "alchemist"
            ]
        }
    },
    "effects": [],
    "flags": {},
    "img": "systems/pf2e/icons/features/feats/feats.webp",
    "name": "True Debilitating Bomb",
    "type": "feat"
}
