{
    "_id": "cppQZwnuoXqX8mgF",
    "data": {
        "actionCategory": {
            "value": ""
        },
        "actionType": {
            "value": "passive"
        },
        "actions": {
            "value": null
        },
        "description": {
            "value": "<p>To resurrect a creature you've slain, a spellcaster must counteract your influence on its death. The DC of this check is equal to your class DC or spell DC, whichever is higher.</p>\n<p>In addition, add two 5th-level spells to your Red Mantis assassin spellbook-both spells must be chosen from the following options:</p>\n<ul>\n<li><em>@Compendium[pf2e.spells-srd.Death Ward]{Death Ward}</em>,</li>\n<li><em>@Compendium[pf2e.spells-srd.Drop Dead]{Drop Dead}</em>,</li>\n<li><em>@Compendium[pf2e.spells-srd.False Vision]{False Vision}</em>,</li>\n<li><em>@Compendium[pf2e.spells-srd.Hallucination]{Hallucination}</em>,</li>\n<li><em>@Compendium[pf2e.spells-srd.Illusory Scene]{Illusory Scene}</em>,</li>\n<li><em>@Compendium[pf2e.spells-srd.Mind Probe]{Mind Probe}</em>, or</li>\n<li><em>@Compendium[pf2e.spells-srd.Sending]{Sending}</em>.</li>\n</ul>\n<p>You gain a 5th-level spell slot that you can use to prepare a spell from your Red Mantis assassin spellbook.</p>"
        },
        "featType": {
            "value": "archetype"
        },
        "level": {
            "value": 12
        },
        "prerequisites": {
            "value": [
                {
                    "value": "Achaekek's Grip"
                },
                {
                    "value": "Advanced Red Mantis Magic"
                }
            ]
        },
        "rules": [],
        "source": {
            "value": ""
        },
        "traits": {
            "custom": "",
            "rarity": "rare",
            "selected": {
                "archetype": "Archetype"
            },
            "value": [
                "archetype"
            ]
        }
    },
    "effects": [],
    "flags": {},
    "img": "systems/pf2e/icons/features/feats/feats.webp",
    "name": "Vernai Training",
    "type": "feat"
}
