{
    "_id": "vU5leGDNAZSfPgTz",
    "data": {
        "actionCategory": {
            "value": ""
        },
        "actionType": {
            "value": "passive"
        },
        "actions": {
            "value": null
        },
        "description": {
            "value": "<p><strong>Moderate Curse</strong> Others subconsciously recognize your past betrayals.</p>\n<p>Whenever you attempt a Diplomacy check and roll a failure, you get a critical failure instead, and if you roll a critical success, you get a success instead.</p>"
        },
        "featType": {
            "value": "curse"
        },
        "level": {
            "value": 0
        },
        "prerequisites": {
            "value": []
        },
        "rules": [],
        "source": {
            "value": ""
        },
        "traits": {
            "custom": "",
            "rarity": "common",
            "value": []
        }
    },
    "effects": [],
    "flags": {},
    "img": "systems/pf2e/icons/deity/Shelyn.webp",
    "name": "Shelyn - Moderate Curse",
    "type": "feat"
}
