{
    "_id": "aOVXhHVkLw9dLCdR",
    "data": {
        "actionCategory": {
            "value": ""
        },
        "actionType": {
            "value": "passive"
        },
        "actions": {
            "value": null
        },
        "description": {
            "value": "<p><strong>Moderate Curse</strong> You share the pain of others, and even minor wounds bring you incredible pain.</p>\n<p>Whenever you see (or otherwise sense) a creature take damage, you take [[/r 1d6]] mental damage.</p>\n<p>Whenever you take damage any other way than from the first part of this curse, you take [[/r 1d6]] mental damage from increased pain and are @Compendium[pf2e.conditionitems.Sickened]{Sickened 1}. Mental damage from this curse ignores any resistance you have to mental damage.</p>"
        },
        "featType": {
            "value": "curse"
        },
        "level": {
            "value": 0
        },
        "prerequisites": {
            "value": []
        },
        "rules": [],
        "source": {
            "value": ""
        },
        "traits": {
            "custom": "",
            "rarity": "common",
            "value": []
        }
    },
    "effects": [],
    "flags": {},
    "img": "systems/pf2e/icons/deity/Zon-Kuthon.webp",
    "name": "Zon-Kuthon - Moderate Curse",
    "type": "feat"
}
