{
    "_id": "GlggmEqkGVj1noOD",
    "data": {
        "description": {
            "value": "<p>Granted by <em>@Compendium[pf2e.spells-srd.Bottle the Storm]{Bottle the Storm}</em></p>\n<p>You gain electricity resistance against the triggering effect.</p>"
        },
        "duration": {
            "expiry": "turn-start",
            "sustained": false,
            "unit": "rounds",
            "value": 0
        },
        "level": {
            "value": 4
        },
        "rules": [
            {
                "key": "Resistance",
                "type": "electricity",
                "value": "10 + 5*floor((@item.level -4)/3)"
            }
        ],
        "source": {
            "value": "Pathfinder Lost Omens: Gods & Magic"
        },
        "start": {
            "initiative": null,
            "value": 0
        },
        "target": null,
        "tokenIcon": {
            "show": true
        },
        "traits": {
            "custom": "",
            "rarity": "common",
            "value": []
        }
    },
    "effects": [],
    "flags": {},
    "img": "systems/pf2e/icons/spells/bottle-the-storm.webp",
    "name": "Spell Effect: Bottle the Storm",
    "type": "effect"
}
