{
    "_id": "4FD4vJqVpuuJjk9Q",
    "data": {
        "description": {
            "value": "<p>The mind swap is unusually smooth, and the targets gain a +4 circumstance bonus to Deception checks to Impersonate each other.</p>"
        },
        "duration": {
            "expiry": "turn-start",
            "sustained": false,
            "unit": "days",
            "value": 7
        },
        "level": {
            "value": 5
        },
        "rules": [
            {
                "key": "FlatModifier",
                "predicate": {
                    "all": [
                        "impersonateMindSwap"
                    ]
                },
                "selector": "deception",
                "type": "circumstance",
                "value": 4
            },
            {
                "key": "ToggleProperty",
                "label": "Impersonate the Other Target of Mind Swap",
                "property": "flags.pf2e.rollOptions.all.impersonateMindSwap"
            }
        ],
        "source": {
            "value": ""
        },
        "start": {
            "initiative": null,
            "value": 0
        },
        "target": null,
        "tokenIcon": {
            "show": true
        },
        "traits": {
            "custom": "",
            "rarity": "common",
            "value": []
        }
    },
    "effects": [],
    "flags": {},
    "img": "systems/pf2e/icons/default-icons/effect.svg",
    "name": "Spell Effect: Mind Swap (Critical Success)",
    "type": "effect"
}
