{
    "_id": "HEbbxKtBzsLhFead",
    "data": {
        "description": {
            "value": "<p>You bind yourself to the power of Hell, transforming into a Medium devil battle form. When you cast this spell, choose barbazu, erinys, osyluth, or sarglagon. If you choose osyluth or sarglagon, the battle form is Large and you must have enough space to expand into or the spell is lost. While in this form you gain the devil and fiend traits. You have hands in this battle form and can use manipulate actions. You can Dismiss the spell.</p>\n<p>You gain the following statistics and abilities regardless of the form that you choose:</p>\n<ul>\n<li>AC = 22 + your level. Ignore your armor check's penalty and Speed reduction.</li>\n<li>5 temporary Hit Points, resistance 5 to physical damage (except silver), and weakness 5 to good.</li>\n<li>Resistance 10 to fire.</li>\n<li>Darkvision.</li>\n<li>One or more attacks specific to the battle form you use. You're trained with them. Your attack modifier is +20, and you use the listed damage. These attacks are Strength based (for the purpose of the enfeebled condition, for example). If your attack modifier is higher for the given unarmed attack or weapon, you can use it instead.</li>\n<li>Athletics modifier of +23, unless your own modifier is higher.</li>\n</ul>\n<p>You also gain specific abilities based on the type of devil you choose:</p>\n<ul>\n<li><strong>Osyluth</strong> Speed 35 feet, fly 30 feet;\n<ul>\n<li><strong>Melee</strong> <span class=\"pf2-icon\">1</span> jaws, <strong>Damage</strong> 2d10+10 piercing plus 1d6 evil;</li>\n<li><strong>Melee</strong> <span class=\"pf2-icon\">1 </span>claw (agile, reach 10 feet), <strong>Damage</strong> 2d6 slashing plus 1d6 evil;</li>\n<li><strong>Melee</strong> <span class=\"pf2-icon\">1</span> stinger (reach 15 feet), <strong>Damage</strong> 1d10 piercing plus 1d6 evil and 1d6 poison;</li>\n<li><strong>Ranged</strong> <span class=\"pf2-icon\">1</span> bone shard (range increment 30 feet), <strong>Damage</strong> 2d6 piercing plus 1d6 evil.</li>\n</ul>\n</li>\n</ul>"
        },
        "duration": {
            "expiry": "turn-start",
            "sustained": false,
            "unit": "minutes",
            "value": 1
        },
        "level": {
            "value": 1
        },
        "rules": [
            {
                "hasHands": true,
                "key": "BattleForm",
                "overrides": {
                    "armorClass": {
                        "modifier": "22 + @actor.level"
                    },
                    "resistances": [
                        {
                            "except": "Silver",
                            "type": "physical",
                            "value": 5
                        },
                        {
                            "type": "fire",
                            "value": 10
                        }
                    ],
                    "senses": {
                        "darkvision": {}
                    },
                    "size": "lg",
                    "skills": {
                        "ath": {
                            "modifier": 23
                        }
                    },
                    "speeds": {
                        "fly": 30,
                        "land": 35
                    },
                    "strikes": {
                        "bone-shard": {
                            "ability": "str",
                            "category": "unarmed",
                            "damage": {
                                "damageType": "piercing",
                                "dice": 2,
                                "die": "d6"
                            },
                            "group": "brawling",
                            "modifier": 20,
                            "traits": [
                                "unarmed",
                                "range-increment-30"
                            ]
                        },
                        "claw": {
                            "ability": "str",
                            "baseType": "claw",
                            "category": "unarmed",
                            "damage": {
                                "damageType": "slashing",
                                "dice": 1,
                                "die": "d8"
                            },
                            "group": "brawling",
                            "label": "PF2E.Weapon.Base.claw",
                            "modifier": 20,
                            "traits": [
                                "reach-10",
                                "agile",
                                "unarmed"
                            ]
                        },
                        "jaws": {
                            "ability": "str",
                            "baseType": "jaws",
                            "category": "unarmed",
                            "damage": {
                                "damageType": "piercing",
                                "dice": 2,
                                "die": "d10",
                                "modifier": 10
                            },
                            "group": "brawling",
                            "label": "PF2E.Weapon.Base.jaws",
                            "modifier": 20,
                            "traits": [
                                "unarmed"
                            ]
                        },
                        "stinger": {
                            "ability": "str",
                            "category": "unarmed",
                            "damage": {
                                "damageType": "piercing",
                                "dice": 1,
                                "die": "d10"
                            },
                            "group": "brawling",
                            "modifier": 20,
                            "traits": [
                                "unarmed",
                                "reach-15"
                            ]
                        }
                    },
                    "tempHP": 5,
                    "traits": [
                        "devil",
                        "fiend"
                    ],
                    "weaknesses": [
                        {
                            "type": "good",
                            "value": 5
                        }
                    ]
                }
            },
            {
                "damageType": "evil",
                "diceNumber": 1,
                "dieSize": "d6",
                "key": "DamageDice",
                "predicate": {
                    "all": [
                        "battle-form"
                    ]
                },
                "selector": "damage"
            },
            {
                "damageType": "poison",
                "diceNumber": 1,
                "dieSize": "d6",
                "key": "DamageDice",
                "predicate": {
                    "all": [
                        "battle-form"
                    ]
                },
                "selector": "stinger-damage"
            }
        ],
        "source": {
            "value": "Pathfinder Secrets of Magic"
        },
        "start": {
            "initiative": null,
            "value": 0
        },
        "target": null,
        "tokenIcon": {
            "show": true
        },
        "traits": {
            "custom": "",
            "rarity": "common",
            "value": []
        }
    },
    "effects": [],
    "flags": {},
    "img": "systems/pf2e/icons/spells/devil-form.webp",
    "name": "Spell Effect: Devil Form (Osyluth)",
    "type": "effect"
}
