{
    "_id": "HknLjb34RvXGrgeJ",
    "data": {
        "actionCategory": {
            "value": ""
        },
        "actionType": {
            "value": "passive"
        },
        "actions": {
            "value": null
        },
        "description": {
            "value": "<p>Warlike forces fill you with physical might and tactical knowledge, aiming to have you uphold the glory of combat, fight to improve the world, prepare against the necessity of conflict, or endure the inevitability of war. You might draw upon deities such as Gorum, Iomedae, Rovagug, the Horseman of War Szuriel, the Queen of the Night Eiseth, the Vudrani god Diomazul, and others, or you might find power in the unending conflict between the armies of Heaven and Hell, the Elemental Planes, the Outer Gods, or even the collective spirits of those who fought in wars over the ages.</p>\n<h3>Curse of the Hero's Burden</h3>\n<p>You thrive while adrenaline flows and your life depends on your might alone, but holding the collective battle prowess of the ages within you leaves your body weakened after a fight. You smell faintly of steel and blood no matter how you try to remove or mask the scent, you appear more muscular than you actually are, and you hear the faint clash and clamor of battle in the distance at all times.</p>"
        },
        "featType": {
            "value": "classfeature"
        },
        "level": {
            "value": 2
        },
        "location": "",
        "prerequisites": {
            "value": []
        },
        "rules": [],
        "source": {
            "value": ""
        },
        "traits": {
            "custom": "",
            "rarity": "common",
            "value": [
                "oracle"
            ]
        }
    },
    "effects": [],
    "flags": {},
    "img": "systems/pf2e/icons/features/classes/battle-mystery.webp",
    "name": "Battle Mystery (Multiclass)",
    "type": "feat"
}
