{
    "_id": "eW3cfCH7Wpx2vik2",
    "data": {
        "actionCategory": {
            "value": ""
        },
        "actionType": {
            "value": "passive"
        },
        "actions": {
            "value": null
        },
        "description": {
            "value": "<p>Fey whimsy or a tryst in a moonlit grove put the bewitching magic of the First World into your family's bloodline.</p>\n<p><strong>Spell List</strong> primal</p>\n<p><strong>Bloodline Skills</strong> Deception, Nature</p>\n<p><strong>Granted Spells</strong> cantrip <em>@Compendium[pf2e.spells-srd.Ghost Sound]{Ghost Sound}</em>, 1st: <em>@Compendium[pf2e.spells-srd.Charm]{Charm}</em>, 2nd: <em>@Compendium[pf2e.spells-srd.Hideous Laughter]{Hideous Laughter}</em>, 3rd: <em>@Compendium[pf2e.spells-srd.Enthrall]{Enthrall}</em>, 4th: <em>@Compendium[pf2e.spells-srd.Suggestion]{Suggestion}</em>, 5th: <em>@Compendium[pf2e.spells-srd.Cloak of Colors]{Cloak of Colors}</em>, 6th: <em>@Compendium[pf2e.spells-srd.Mislead]{Mislead}</em>, 7th: <em>@Compendium[pf2e.spells-srd.Visions of Danger]{Visions of Danger}</em>, 8th: <em>@Compendium[pf2e.spells-srd.Uncontrollable Dance]{Uncontrollable Dance}</em>, 9th: <em>@Compendium[pf2e.spells-srd.Resplendent Mansion]{Resplendent Mansion}</em></p>\n<p><strong>Bloodline Spells</strong> initial: <em>@Compendium[pf2e.spells-srd.Faerie Dust]{Faerie Dust}</em>, advanced: <em>@Compendium[pf2e.spells-srd.Fey Disappearance]{Fey Disappearance}</em>, greater: <em>@Compendium[pf2e.spells-srd.Fey Glamour]{Fey Glamour}</em></p>\n<p><strong>Blood Magic</strong> Colorful fey glamours dance around you or one target, causing them to be concealed for 1 round. Such obvious concealment can't be used to Hide.</p>\n<p>@Compendium[pf2e.feature-effects.Effect: Fey Blood Magic]{Effect: Fey Blood Magic}</p>"
        },
        "featType": {
            "value": "classfeature"
        },
        "level": {
            "value": 1
        },
        "location": "",
        "prerequisites": {
            "value": []
        },
        "rules": [
            {
                "key": "ActiveEffectLike",
                "mode": "upgrade",
                "path": "data.resources.focus.max",
                "priority": 10,
                "value": 1
            },
            {
                "key": "ActiveEffectLike",
                "mode": "upgrade",
                "path": "data.skills.dec.rank",
                "value": 1
            },
            {
                "key": "ActiveEffectLike",
                "mode": "upgrade",
                "path": "data.skills.nat.rank",
                "value": 1
            },
            {
                "key": "ActiveEffectLike",
                "mode": "override",
                "path": "data.proficiencies.aliases.sorcerer",
                "priority": 39,
                "value": "primal"
            }
        ],
        "source": {
            "value": ""
        },
        "traits": {
            "custom": "",
            "rarity": "common",
            "value": [
                "sorcerer"
            ]
        }
    },
    "effects": [],
    "flags": {},
    "img": "systems/pf2e/icons/features/classes/fey.webp",
    "name": "Bloodline: Fey",
    "type": "feat"
}
