{
    "_id": "9SruVg2lZpNaYLOB",
    "data": {
        "actionCategory": {
            "value": ""
        },
        "actionType": {
            "value": "passive"
        },
        "actions": {
            "value": null
        },
        "description": {
            "value": "<p>When taking advantage of an opening, you both hinder and harm your foe. You gain the @Compendium[pf2e.actionspf2e.Debilitating Strike]{Debilitating Strike} free action.</p>"
        },
        "featType": {
            "value": "classfeature"
        },
        "level": {
            "value": 9
        },
        "location": "",
        "prerequisites": {
            "value": []
        },
        "rules": [
            {
                "key": "Note",
                "predicate": {
                    "all": [
                        "target:flatFooted"
                    ]
                },
                "selector": "damage",
                "text": "<p class='compact-text'><strong>Debilitation choices</strong></p><p data-visibility='owner'><span class='pf2-icon'>f</span>@Compendium[pf2e.actionspf2e.Debilitating Strike]{Debilitating Strike}</p>"
            },
            {
                "key": "GrantItem",
                "uuid": "Compendium.pf2e.actionspf2e.Debilitating Strike"
            }
        ],
        "source": {
            "value": "Pathfinder Core Rulebook"
        },
        "traits": {
            "custom": "",
            "rarity": "common",
            "value": [
                "rogue"
            ]
        }
    },
    "effects": [],
    "flags": {},
    "img": "systems/pf2e/icons/features/classes/debilitating-strikes.webp",
    "name": "Debilitating Strikes",
    "type": "feat"
}
