{
    "_id": "5LOARurr4qWkfS9K",
    "data": {
        "actionCategory": {
            "value": ""
        },
        "actionType": {
            "value": "passive"
        },
        "actions": {
            "value": null
        },
        "description": {
            "value": "<p>Your unbelievable training grants you mental resiliency.</p>\n<p>Your proficiency rank for Will saves increases to legendary. When you roll a success at a Will save, you get a critical success. When you roll a critical failure at a Will save, you get a failure instead. When you roll a failure on a Will save against a damaging effect, you take half damage.</p>"
        },
        "featType": {
            "value": "classfeature"
        },
        "level": {
            "value": 17
        },
        "location": "",
        "prerequisites": {
            "value": []
        },
        "rules": [
            {
                "key": "Note",
                "selector": "will",
                "text": "<p class='compact-text'><strong>{item|name}</strong> When you roll a critical failure at a Will save, you get a failure instead. When you fail a Will save against a damaging effect, you take half damage.</p>"
            },
            {
                "adjustment": {
                    "criticalFailure": "one-degree-better"
                },
                "key": "AdjustDegreeOfSuccess",
                "selector": "will",
                "type": "save"
            },
            {
                "key": "ActiveEffectLike",
                "mode": "upgrade",
                "path": "data.saves.will.rank",
                "value": 4
            }
        ],
        "source": {
            "value": ""
        },
        "traits": {
            "custom": "",
            "rarity": "common",
            "value": [
                "bard",
                "investigator",
                "oracle"
            ]
        }
    },
    "effects": [],
    "flags": {},
    "img": "systems/pf2e/icons/features/classes/greater-resolve.webp",
    "name": "Greater Resolve",
    "type": "feat"
}
