{
    "_id": "ZslXrvYRxHBXc1Ds",
    "data": {
        "actionCategory": {
            "value": ""
        },
        "actionType": {
            "value": "passive"
        },
        "actions": {
            "value": null
        },
        "description": {
            "value": "<p>Once you begin along a path, nothing can stop you from reaching its end. You transform the mass of a greataxe, greatsword, or polearm into an unstoppable force to augment your own striking power or keep you standing on the battlefield.</p>\n<p>When you enter Arcane Cascade stance and at the start of each of your turns while you're in that stance, if you're wielding a melee weapon in two hands, you gain temporary Hit Points equal to half your level (minimum 1 temporary HP).</p>\n<p><strong>Conflux Spell</strong> <em>@Compendium[pf2e.spells-srd.Thunderous Strike]{Thunderous Strike}</em></p>"
        },
        "featType": {
            "value": "classfeature"
        },
        "level": {
            "value": 1
        },
        "location": "",
        "prerequisites": {
            "value": []
        },
        "rules": [],
        "source": {
            "value": ""
        },
        "traits": {
            "custom": "",
            "rarity": "common",
            "value": [
                "magus"
            ]
        }
    },
    "effects": [],
    "flags": {},
    "img": "systems/pf2e/icons/features/classes/inexorable-iron.webp",
    "name": "Inexorable Iron",
    "type": "feat"
}
