{
    "_id": "KHKe3PmctOFUeh85",
    "data": {
        "actionCategory": {
            "value": ""
        },
        "actionType": {
            "value": "passive"
        },
        "actions": {
            "value": null
        },
        "description": {
            "value": "<p>You gain the <em>@Compendium[pf2e.spells-srd.Blood Ward]{Blood Ward}</em> hex; your familiar learns <em>@Compendium[pf2e.spells-srd.Mage Armor]{Mage Armor}</em>.</p>"
        },
        "featType": {
            "value": "classfeature"
        },
        "level": {
            "value": 2
        },
        "location": "",
        "prerequisites": {
            "value": []
        },
        "rules": [],
        "source": {
            "value": "Pathfinder Advanced Player's Guide"
        },
        "traits": {
            "custom": "",
            "rarity": "common",
            "value": [
                "witch"
            ]
        }
    },
    "effects": [],
    "flags": {},
    "img": "systems/pf2e/icons/spells/blood-ward.webp",
    "name": "Lesson of Protection",
    "type": "feat"
}
