{
    "_id": "y6qnbUc8y0815QNE",
    "data": {
        "actionCategory": {
            "value": ""
        },
        "actionType": {
            "value": "passive"
        },
        "actions": {
            "value": null
        },
        "description": {
            "value": "<p>You've learned to find perfection in every success. Choose a different saving throw than the one you chose for your path to perfection. Your proficiency rank for the chosen saving throw increases to master. If you roll a success with the chosen saving throw, you instead critically succeed.</p>"
        },
        "featType": {
            "value": "classfeature"
        },
        "level": {
            "value": 11
        },
        "location": "",
        "prerequisites": {
            "value": []
        },
        "rules": [
            {
                "choices": [
                    {
                        "label": "PF2E.SavesFortitude",
                        "predicate": {
                            "not": [
                                "self:path-to-perfection:fortitude"
                            ]
                        },
                        "value": "fortitude"
                    },
                    {
                        "label": "PF2E.SavesReflex",
                        "predicate": {
                            "not": [
                                "self:path-to-perfection:reflex"
                            ]
                        },
                        "value": "reflex"
                    },
                    {
                        "label": "PF2E.SavesWill",
                        "predicate": {
                            "not": [
                                "self:path-to-perfection:will"
                            ]
                        },
                        "value": "will"
                    }
                ],
                "flag": "pathToPerfection",
                "key": "ChoiceSet",
                "prompt": "PF2E.SpecificRule.Prompt.PathToPerfection"
            },
            {
                "key": "ActiveEffectLike",
                "mode": "upgrade",
                "path": "data.saves.{item|flags.pf2e.rulesSelections.pathToPerfection}.rank",
                "value": 3
            },
            {
                "adjustment": {
                    "success": "one-degree-better"
                },
                "key": "AdjustDegreeOfSuccess",
                "selector": "{item|flags.pf2e.rulesSelections.pathToPerfection}",
                "type": "save"
            },
            {
                "key": "Note",
                "selector": "{item|flags.pf2e.rulesSelections.pathToPerfection}",
                "text": "<p class=\"compact-text\"><strong>{item|name}</strong> When you roll a success on a save, you get a critical success instead.</p>"
            },
            {
                "domain": "all",
                "key": "RollOption",
                "option": "self:path-to-perfection:{item|flags.pf2e.rulesSelections.pathToPerfection}"
            }
        ],
        "source": {
            "value": ""
        },
        "traits": {
            "custom": "",
            "rarity": "common",
            "value": [
                "monk"
            ]
        }
    },
    "effects": [],
    "flags": {},
    "img": "systems/pf2e/icons/features/classes/second-path-to-perfection.webp",
    "name": "Second Path to Perfection",
    "type": "feat"
}
