{
    "_id": "FuUXyv2yBs7zRgqT",
    "data": {
        "actionCategory": {
            "value": ""
        },
        "actionType": {
            "value": "passive"
        },
        "actions": {
            "value": null
        },
        "description": {
            "value": "<p>Water is the source of life, and you've learned to shape how it flows. You're trained in Medicine. You also gain the @Compendium[pf2e.feats-srd.Shore Step]{Shore Step} druid feat. You gain the <em>@Compendium[pf2e.spells-srd.Rising Surf]{Rising Surf}</em> order spell. Polluting water or allowing those who pollute water sources to go unpunished is anathema to your order (this doesn't force you to take action against potential water pollution or to sacrifice yourself against an obviously superior foe).</p>"
        },
        "featType": {
            "value": "classfeature"
        },
        "level": {
            "value": 1
        },
        "location": "",
        "prerequisites": {
            "value": []
        },
        "rules": [
            {
                "key": "ActiveEffectLike",
                "mode": "upgrade",
                "path": "data.skills.med.rank",
                "value": 1
            },
            {
                "key": "GrantItem",
                "predicate": {
                    "all": [
                        "self:class:druid"
                    ]
                },
                "uuid": "Compendium.pf2e.feats-srd.Shore Step"
            }
        ],
        "source": {
            "value": "Pathfinder Core Rulebook"
        },
        "traits": {
            "custom": "",
            "rarity": "common",
            "value": [
                "druid"
            ]
        }
    },
    "effects": [],
    "flags": {},
    "img": "systems/pf2e/icons/features/classes/wave-order.webp",
    "name": "Wave Order",
    "type": "feat"
}
