{
    "_id": "ynm8JIU3sc3qUMpa",
    "data": {
        "ability": {
            "value": ""
        },
        "area": {
            "areaType": "",
            "value": null
        },
        "areasize": {
            "value": ""
        },
        "category": {
            "value": "spell"
        },
        "components": {
            "material": true,
            "somatic": true,
            "verbal": true
        },
        "cost": {
            "value": "6 gp of ruby dust"
        },
        "damage": {
            "value": {}
        },
        "description": {
            "value": "<p>A magical flame springs up from the object, as bright as a torch. It doesn't need oxygen, react to water, or generate heat.</p>\n<hr />\n<p><strong>Heightened (+1)</strong> The cost increases as follows:</p>\n<ul>\n<li>16 gp for 3rd level</li>\n<li>30 gp for 4th</li>\n<li>60 gp for 5th</li>\n<li>120 gp for 6th</li>\n<li>270 gp for 7th</li>\n<li>540 gp for 8th</li>\n<li>1,350 gp for 9th</li>\n<li>3,350 gp for 10th.</li>\n</ul>"
        },
        "duration": {
            "value": "unlimited"
        },
        "hasCounteractCheck": {
            "value": false
        },
        "level": {
            "value": 2
        },
        "location": {
            "value": ""
        },
        "materials": {
            "value": ""
        },
        "prepared": {
            "value": ""
        },
        "primarycheck": {
            "value": ""
        },
        "range": {
            "value": "touch"
        },
        "rules": [],
        "save": {
            "basic": "",
            "value": ""
        },
        "school": {
            "value": "evocation"
        },
        "secondarycasters": {
            "value": ""
        },
        "secondarycheck": {
            "value": ""
        },
        "source": {
            "value": "Pathfinder Core Rulebook"
        },
        "spellType": {
            "value": "utility"
        },
        "sustained": {
            "value": false
        },
        "target": {
            "value": "1 object"
        },
        "time": {
            "value": "3"
        },
        "traditions": {
            "value": [
                "arcane",
                "divine",
                "occult",
                "primal"
            ]
        },
        "traits": {
            "custom": "",
            "rarity": "common",
            "value": [
                "light"
            ]
        }
    },
    "effects": [],
    "flags": {},
    "img": "systems/pf2e/icons/spells/continual-flame.webp",
    "name": "Continual Flame",
    "type": "spell"
}
