{
    "_id": "dR53f0p15EW7D0xC",
    "data": {
        "ability": {
            "value": ""
        },
        "area": {
            "areaType": "",
            "value": ""
        },
        "autoHeightenLevel": {
            "value": null
        },
        "category": {
            "value": "spell"
        },
        "components": {
            "focus": false,
            "material": false,
            "somatic": true,
            "verbal": true
        },
        "cost": {
            "value": ""
        },
        "damage": {
            "value": {}
        },
        "description": {
            "value": "<p>You bind yourself to the power of Hell, transforming into a Medium devil battle form. When you cast this spell, choose barbazu, erinys, osyluth, or sarglagon. If you choose osyluth or sarglagon, the battle form is Large and you must have enough space to expand into or the spell is lost. While in this form you gain the devil and fiend traits. You have hands in this battle form and can use manipulate actions. You can Dismiss the spell.</p>\n<p>You gain the following statistics and abilities regardless of the form that you choose:</p>\n<ul>\n<li>AC = 22 + your level. Ignore your armor check's penalty and Speed reduction.</li>\n<li>5 temporary Hit Points, resistance 5 to physical damage (except silver), and weakness 5 to good.</li>\n<li>Resistance 10 to fire.</li>\n<li>Darkvision.</li>\n<li>One or more attacks specific to the battle form you use. You're trained with them. Your attack modifier is +20, and you use the listed damage. These attacks are Strength based (for the purpose of the enfeebled condition, for example). If your attack modifier is higher for the given unarmed attack or weapon, you can use it instead.</li>\n<li>Athletics modifier of +23, unless your own modifier is higher.</li>\n</ul>\n<p>You also gain specific abilities based on the type of devil you choose:</p>\n<ul>\n<li><strong>Barbazu</strong> Speed 35 feet;\n<ul>\n<li><strong>Melee</strong> <span class=\"pf2-icon\">1</span> glaive (deadly d8, forceful, reach 10 feet), <strong>Damage</strong> 2d8+10 slashing plus 1d6 evil and 1d6 persistent bleed;</li>\n<li><strong>Melee</strong> <span class=\"pf2-icon\">1</span> beard, <strong>Damage</strong> 3d8 piercing plus 1d6 evil;</li>\n<li><strong>Melee</strong> <span class=\"pf2-icon\">1</span> claw (agile), Damage 3d6 slashing plus 1d6 evil.</li>\n</ul>\n</li>\n</ul>\n<p>@Compendium[pf2e.spell-effects.Spell Effect: Devil Form (Barbazu)]{Spell Effect: Devil Form (Barbazu)}</p>\n<ul>\n<li><strong>Erinys</strong> Speed 25 feet, fly 40 feet;\n<ul>\n<li><strong>Melee</strong> <span class=\"pf2-icon\">1</span> longsword (versatile P), <strong>Damage</strong> 1d8+10 slashing plus 1d6 evil and 1d6 fire;</li>\n<li><strong>Ranged</strong> <span class=\"pf2-icon\">1</span> composite longbow (deadly d10, range increment 100 feet, volley), <strong>Damage</strong> 1d8 piercing plus 1d6 evil and 1d6 fire.</li>\n</ul>\n</li>\n</ul>\n<p>@Compendium[pf2e.spell-effects.Spell Effect: Devil Form (Erinys)]{Spell Effect: Devil Form (Erinys)}</p>\n<ul>\n<li><strong>Osyluth</strong> Speed 35 feet, fly 30 feet;\n<ul>\n<li><strong>Melee</strong> <span class=\"pf2-icon\">1</span> jaws, <strong>Damage</strong> 2d10+10 piercing plus 1d6 evil;</li>\n<li><strong>Melee</strong> <span class=\"pf2-icon\">1 </span>claw (agile, reach 10 feet), <strong>Damage</strong> 2d6 slashing plus 1d6 evil;</li>\n<li><strong>Melee</strong> <span class=\"pf2-icon\">1</span> stinger (reach 15 feet), <strong>Damage</strong> 1d10 piercing plus 1d6 evil and 1d6 poison;</li>\n<li><strong>Ranged</strong> <span class=\"pf2-icon\">1</span> bone shard (range increment 30 feet), <strong>Damage</strong> 2d6 piercing plus 1d6 evil.</li>\n</ul>\n</li>\n</ul>\n<p>@Compendium[pf2e.spell-effects.Spell Effect: Devil Form (Osyluth)]{Spell Effect: Devil Form (Osyluth)}</p>\n<ul>\n<li><strong>Sarglagon</strong> Speed 25 feet, fly 25 feet, swim 30 feet;\n<ul>\n<li><strong>Melee</strong> <span class=\"pf2-icon\">1</span> fangs, <strong>Damage</strong> 2d10+10 piercing plus 1d6 evil;</li>\n<li><strong>Melee</strong> <span class=\"pf2-icon\">1</span> tentacle arm (agile), <strong>Damage</strong> 1d8 bludgeoning plus 1d6 evil and 1d6 poison.</li>\n</ul>\n</li>\n</ul>\n<p>@Compendium[pf2e.spell-effects.Spell Effect: Devil Form (Sarglagon)]{Spell Effect: Devil Form (Sarglagon)}</p>"
        },
        "duration": {
            "value": "1 minute"
        },
        "hasCounteractCheck": {
            "value": false
        },
        "level": {
            "value": 6
        },
        "location": {
            "value": ""
        },
        "materials": {
            "value": ""
        },
        "prepared": {
            "value": ""
        },
        "range": {
            "value": ""
        },
        "rules": [],
        "save": {
            "basic": "",
            "value": ""
        },
        "school": {
            "value": "transmutation"
        },
        "source": {
            "value": "Pathfinder Secrets of Magic"
        },
        "spellType": {
            "value": "utility"
        },
        "sustained": {
            "value": false
        },
        "target": {
            "value": ""
        },
        "time": {
            "value": "2"
        },
        "traditions": {
            "custom": "",
            "value": [
                "arcane",
                "divine"
            ]
        },
        "traits": {
            "custom": "",
            "rarity": "common",
            "value": [
                "evil",
                "lawful",
                "polymorph"
            ]
        }
    },
    "effects": [],
    "flags": {},
    "img": "systems/pf2e/icons/spells/devil-form.webp",
    "name": "Devil Form",
    "type": "spell"
}
