{
    "_id": "AsKLseOo8hwv5Jha",
    "data": {
        "ability": {
            "value": ""
        },
        "area": {
            "areaType": "cone",
            "value": 20
        },
        "areasize": {
            "value": "20-foot cone"
        },
        "category": {
            "value": "focus"
        },
        "components": {
            "material": false,
            "somatic": true,
            "verbal": true
        },
        "cost": {
            "value": ""
        },
        "damage": {
            "value": {}
        },
        "description": {
            "value": "<p>Brandishing your weapon and shouting the final line of the Crimson Oath, you unleash a blast of destructive ruby energy. You must be wielding a melee weapon, and you perform this spell's somatic component by swinging the weapon in a downward arc. You deal normal melee damage for your weapon, including all appropriate bonuses, penalties, modifiers, and properties, to each creature in the spell's area; they must each attempt a basic Fortitude save. A creature that critically fails this save also suffers any additional effect you would normally inflict with your weapon on a critical hit; if the creature that critically fails its save is also immune to critical hits, it merely fails the save instead.</p>\n<p>You can convert all the physical damage from this spell into positive damage against all undead creatures in the area.</p>"
        },
        "duration": {
            "value": ""
        },
        "hasCounteractCheck": {
            "value": false
        },
        "level": {
            "value": 2
        },
        "location": {
            "value": ""
        },
        "materials": {
            "value": ""
        },
        "prepared": {
            "value": ""
        },
        "primarycheck": {
            "value": ""
        },
        "range": {
            "value": ""
        },
        "rules": [],
        "save": {
            "basic": "basic",
            "value": "fortitude"
        },
        "school": {
            "value": "evocation"
        },
        "secondarycasters": {
            "value": ""
        },
        "secondarycheck": {
            "value": ""
        },
        "source": {
            "value": "Pathfinder Lost Omens: Character Guide"
        },
        "spellType": {
            "value": "save"
        },
        "sustained": {
            "value": false
        },
        "target": {
            "value": ""
        },
        "time": {
            "value": "2"
        },
        "traditions": {
            "custom": "",
            "value": []
        },
        "traits": {
            "custom": "",
            "rarity": "uncommon",
            "value": []
        }
    },
    "effects": [],
    "flags": {},
    "img": "systems/pf2e/icons/spells/invoke-the-crimson-oath.webp",
    "name": "Invoke the Crimson Oath",
    "type": "spell"
}
