{
    "_id": "TjWHgXqPv5jywMti",
    "data": {
        "ability": {
            "value": ""
        },
        "area": {
            "areaType": "",
            "value": ""
        },
        "autoHeightenLevel": {
            "value": null
        },
        "category": {
            "value": "spell"
        },
        "components": {
            "focus": false,
            "material": true,
            "somatic": true,
            "verbal": true
        },
        "cost": {
            "value": ""
        },
        "damage": {
            "value": {}
        },
        "description": {
            "value": "<p>You collect information from the world's libraries about a particular subject and store it in an extradimensional library. When you Cast this Spell, choose any skill in which you are at least trained that has the Recall Knowledge action.</p>\n<p>During the duration of this spell, you can call forth a tome from the extradimensional library when attempting a Recall Knowledge check using your chosen skill. This is part of the action to Recall Knowledge. You must have a hand free to do so. The tome appears in your hand, open to an appropriate page. This grants you a +1 status bonus on the Recall Knowledge check. If you roll a critical failure on this check, you get a failure instead. If the roll is successful and the subject is a creature, you gain additional information or context about the creature. Once you reference a book from your pocket library, the spell ends.</p>\n<hr />\n<p><strong>Heightened (3rd)</strong> The status bonus increases to +2 and you can reference your <em>pocket library</em> twice before the spell ends.</p>\n<p><strong>Heightened (6th)</strong> The status bonus increases to +3 you can reference your <em>pocket library</em> three times before the spell ends.</p>\n<p><strong>Heightened (9th)</strong> The status bonus increases to +4 and you can reference your <em>pocket library</em> four times before the spell ends.</p>\n<hr />\n<p>Grants @Compendium[pf2e.spell-effects.Spell Effect: Pocket Library]{Spell Effect: Pocket Library}</p>"
        },
        "duration": {
            "value": "24 hours"
        },
        "hasCounteractCheck": {
            "value": false
        },
        "level": {
            "value": 1
        },
        "location": {
            "value": ""
        },
        "materials": {
            "value": ""
        },
        "range": {
            "value": ""
        },
        "rules": [],
        "save": {
            "basic": "",
            "value": ""
        },
        "school": {
            "value": "divination"
        },
        "source": {
            "value": "Pathfinder Secrets of Magic"
        },
        "spellType": {
            "value": "utility"
        },
        "sustained": {
            "value": false
        },
        "target": {
            "value": ""
        },
        "time": {
            "value": "3"
        },
        "traditions": {
            "custom": "",
            "value": [
                "arcane",
                "occult"
            ]
        },
        "traits": {
            "custom": "",
            "rarity": "common",
            "value": [
                "extradimensional"
            ]
        }
    },
    "effects": [],
    "flags": {},
    "img": "systems/pf2e/icons/spells/pocket-library.webp",
    "name": "Pocket Library",
    "type": "spell"
}
