{
    "_id": "v4QHuVOhFD1JMAqu",
    "data": {
        "ability": {
            "value": ""
        },
        "area": {
            "areaType": "emanation",
            "value": "10"
        },
        "autoHeightenLevel": {
            "value": null
        },
        "category": {
            "value": "focus"
        },
        "components": {
            "focus": false,
            "material": false,
            "somatic": true,
            "verbal": true
        },
        "cost": {
            "value": ""
        },
        "damage": {
            "value": {
                "0": {
                    "applyMod": false,
                    "type": {
                        "categories": [],
                        "subtype": "",
                        "value": "bludgeoning"
                    },
                    "value": "5d6"
                }
            }
        },
        "description": {
            "value": "<p>You rapidly draw the air from your surroundings, hoarding it for yourself. Creatures in the area when the spell is cast take 5d6 bludgeoning damage with a basic Fortitude save. A creature that fails its save can't speak above a raspy whisper for 1 round. A creature that critically fails can't speak or use abilities that require it to breathe for 1 round. This prevents it from using effects that require speech, such as casting spells with verbal components, and from using a breath weapon or similar ability.</p>\n<p>Creatures made of air (such as air elementals) attempting a save against this spell get a degree of success one worse than they rolled.</p>\n<hr />\n<p><strong>Heightened (+1)</strong> Increase the damage by 2d6.</p>"
        },
        "duration": {
            "value": ""
        },
        "hasCounteractCheck": {
            "value": false
        },
        "level": {
            "value": 3
        },
        "location": {
            "value": ""
        },
        "materials": {
            "value": ""
        },
        "prepared": {
            "value": ""
        },
        "range": {
            "value": ""
        },
        "rules": [],
        "save": {
            "basic": "basic",
            "value": "fortitude"
        },
        "scaling": {
            "damage": {
                "0": "2d6"
            },
            "interval": 1
        },
        "school": {
            "value": "evocation"
        },
        "source": {
            "value": "Pathfinder Secrets of Magic"
        },
        "spellType": {
            "value": "save"
        },
        "sustained": {
            "value": false
        },
        "target": {
            "value": ""
        },
        "time": {
            "value": "2"
        },
        "traditions": {
            "value": []
        },
        "traits": {
            "custom": "",
            "rarity": "uncommon",
            "value": [
                "air"
            ]
        }
    },
    "effects": [],
    "flags": {},
    "img": "systems/pf2e/icons/spells/powerful-inhalation.webp",
    "name": "Powerful Inhalation",
    "type": "spell"
}
