{
    "_id": "OOMQ8Z6EIrGt5NJ6",
    "data": {
        "ability": {
            "value": ""
        },
        "area": {
            "areaType": "",
            "value": ""
        },
        "autoHeightenLevel": {
            "value": null
        },
        "category": {
            "value": "spell"
        },
        "components": {
            "focus": false,
            "material": false,
            "somatic": false,
            "verbal": true
        },
        "cost": {
            "value": ""
        },
        "damage": {
            "value": {}
        },
        "description": {
            "value": "<p><strong>Trigger</strong> You are targeted with an enemy's Strike.</p>\n<hr />\n<p>When attacked, you attempt to quickly swap your own position with that of another creature. A creature that is unwilling to swap places with you must attempt a Will save. Willing creatures automatically fail. If you successfully switch places with the target, the triggering attack is resolved against that creature as if it had been the original target of the attack. After the swap, you and the target are both temporarily immune to unexpected transposition spells for 1 minute. You automatically switch places if the target is willing. If it's unwilling, it can attempt a Will save. Neither of you teleports if the target succeeds at its save.</p>"
        },
        "duration": {
            "value": ""
        },
        "hasCounteractCheck": {
            "value": false
        },
        "level": {
            "value": 6
        },
        "location": {
            "value": ""
        },
        "materials": {
            "value": ""
        },
        "range": {
            "value": "30 feet"
        },
        "rules": [],
        "save": {
            "basic": "",
            "value": "will"
        },
        "school": {
            "value": "conjuration"
        },
        "source": {
            "value": "Pathfinder Secrets of Magic"
        },
        "spellType": {
            "value": "save"
        },
        "sustained": {
            "value": false
        },
        "target": {
            "value": "1 creature other than the triggering enemy"
        },
        "time": {
            "value": "reaction"
        },
        "traditions": {
            "custom": "",
            "value": [
                "arcane",
                "occult"
            ]
        },
        "traits": {
            "custom": "",
            "rarity": "common",
            "value": [
                "teleportation"
            ]
        }
    },
    "effects": [],
    "flags": {},
    "img": "systems/pf2e/icons/spells/unexpected-transposition.webp",
    "name": "Unexpected Transposition",
    "type": "spell"
}
