{
    "_id": "EGTTGI1pkmsVPqHp",
    "data": {
        "ability": {
            "value": ""
        },
        "area": {
            "areaType": "",
            "value": ""
        },
        "autoHeightenLevel": {
            "value": null
        },
        "category": {
            "value": "spell"
        },
        "components": {
            "focus": false,
            "material": false,
            "somatic": false,
            "verbal": true
        },
        "cost": {
            "value": ""
        },
        "damage": {
            "value": {}
        },
        "description": {
            "value": "<p>The target is energized by its good fortune as it spreads to others-as long as they keep winning. It gains the @Compendium[pf2e.conditionitems.Quickened]{Quickened} condition for 1 round. If the target or one of their allies within 20 feet gets a critical success on an attack roll against a significant foe, whoever got the critical success becomes quickened if they weren't already, and the duration of the winning streak is extended by another round. Creatures quickened by the spell can use the extra action to Strike, Step, or Stride. If a full round passes without the target or one their allies critically succeeding on an attack roll against a significant foe, the winning streak breaks and the spell ends.</p>"
        },
        "duration": {
            "value": "1 round (see text)"
        },
        "hasCounteractCheck": {
            "value": false
        },
        "level": {
            "value": 4
        },
        "location": {
            "value": ""
        },
        "materials": {
            "value": ""
        },
        "range": {
            "value": "20 feet"
        },
        "rules": [],
        "save": {
            "basic": "",
            "value": ""
        },
        "school": {
            "value": "divination"
        },
        "source": {
            "value": "Pathfinder Secrets of Magic"
        },
        "spellType": {
            "value": "utility"
        },
        "sustained": {
            "value": false
        },
        "target": {
            "value": "1 creature"
        },
        "time": {
            "value": "1"
        },
        "traditions": {
            "custom": "",
            "value": [
                "arcane",
                "occult"
            ]
        },
        "traits": {
            "custom": "",
            "rarity": "common",
            "value": []
        }
    },
    "effects": [],
    "flags": {},
    "img": "systems/pf2e/icons/spells/winning-streak.webp",
    "name": "Winning Streak",
    "type": "spell"
}
