{
    "_id": "lJ1lNwGxV0IrsN2z",
    "data": {
        "actionCategory": {
            "value": ""
        },
        "actionType": {
            "value": "passive"
        },
        "actions": {
            "value": null
        },
        "description": {
            "value": "<p><strong>[Generic]</strong><strong>][Limited Use]</strong> □□□</p>\n<p><strong>Effect</strong> You have made yourself, one way or another, a known quantity in the realm of River Kingdoms politics. Upon completing an adventure set in the River Kingdoms or Razmiran, you may check a box next to this boon when using your downtime to Earn Income to participate in the political intrigues of the region, allowing you find an @Compendium[pf2e.actionspf2e.Earn Income]{Earn Income} task of up to your level +1. Once all three boxes next to this boon are checked, this boon has a special effect in a future adventure.</p>"
        },
        "featType": {
            "value": "pfsboon"
        },
        "level": {
            "value": 0
        },
        "prerequisites": {
            "value": []
        },
        "rules": [],
        "source": {
            "value": ""
        },
        "traits": {
            "custom": "",
            "rarity": "common",
            "value": []
        }
    },
    "effects": [],
    "flags": {},
    "img": "systems/pf2e/icons/default-icons/mystery-man.webp",
    "name": "S1-08 - River Kingdoms Politician",
    "type": "feat"
}
