{
    "_id": "bLMoqt9xqTZKnjxr",
    "data": {
        "abilities": {
            "cha": {
                "mod": 1
            },
            "con": {
                "mod": 2
            },
            "dex": {
                "mod": 2
            },
            "int": {
                "mod": -1
            },
            "str": {
                "mod": 4
            },
            "wis": {
                "mod": 2
            }
        },
        "attributes": {
            "ac": {
                "details": "",
                "value": 19
            },
            "allSaves": {
                "value": ""
            },
            "hp": {
                "details": "",
                "max": 63,
                "temp": 0,
                "value": 63
            },
            "initiative": {
                "ability": "perception"
            },
            "perception": {
                "value": 9
            },
            "speed": {
                "details": "",
                "otherSpeeds": [],
                "value": "25"
            }
        },
        "details": {
            "alignment": {
                "value": "CE"
            },
            "blurb": "",
            "creatureType": "Beast",
            "level": {
                "value": 3
            },
            "privateNotes": "",
            "publicNotes": "<p>The curse of the werewolf-known as lycanthropy to many-instills in its carriers the hungry bloodlust and predatory instincts of the wolf. Werewolves tend to dwell on the fringes of society or in small settlements where, in their humanoid forms, they work as laborers, hunters, farmers, or trappers. At night, however, these same villagers transform into violent killers and sadistic stalkers who prey on their neighbors. Werewolves are the quintessential werecreature, and the first that comes to mind when most people speak of such beings.</p>\n<p>Although most werewolves hide their curse by adopting solitary lifestyles, some retain the pack mentality of true wolves. A small group of such werewolves typically forms a family-like pack, with the eldest or most powerful serving as the leader; new pack mates are hand-chosen and inculcated into the family as its influence grows.</p>\n<hr />\n<p>Werecreatures are humanoids doomed to transform into animals and animal-humanoid hybrids under the light of the full moon. These shapechanging creatures are the result of an ancient primal curse that they can, in turn, transmit through their own bites. Their ability to lurk unseen in the wilds as well as among people, combined with the contagiousness of their condition, makes werecreatures a perennial cause of panicked suspicion.</p>",
            "source": {
                "value": "Pathfinder Bestiary"
            }
        },
        "resources": {},
        "saves": {
            "fortitude": {
                "saveDetail": "",
                "value": 11
            },
            "reflex": {
                "saveDetail": "",
                "value": 9
            },
            "will": {
                "saveDetail": "",
                "value": 7
            }
        },
        "traits": {
            "ci": [],
            "di": {
                "custom": "",
                "value": []
            },
            "dr": [],
            "dv": [
                {
                    "type": "silver",
                    "value": 5
                }
            ],
            "languages": {
                "custom": "Wolf Empathy",
                "selected": [],
                "value": [
                    "common"
                ]
            },
            "rarity": "common",
            "senses": {
                "value": "low-light vision, scent (imprecise) 30 feet"
            },
            "size": {
                "value": "med"
            },
            "traits": {
                "custom": "",
                "value": [
                    "beast",
                    "human",
                    "humanoid",
                    "werecreature"
                ]
            }
        }
    },
    "effects": [],
    "flags": {},
    "img": "systems/pf2e/icons/default-icons/npc.svg",
    "items": [
        {
            "_id": "rqZjeNTFl3EJ0w3K",
            "data": {
                "MAP": {
                    "value": ""
                },
                "baseItem": "battle-axe",
                "bonus": {
                    "value": 0
                },
                "bonusDamage": {
                    "value": 0
                },
                "brokenThreshold": {
                    "value": 0
                },
                "bulkCapacity": {
                    "value": ""
                },
                "category": "martial",
                "collapsed": {
                    "value": false
                },
                "containerId": {
                    "value": ""
                },
                "damage": {
                    "damageType": "slashing",
                    "dice": 1,
                    "die": "d8",
                    "value": ""
                },
                "description": {
                    "value": "<p>These axes are designed explicitly as weapons, rather than tools. They typically weigh less, with a shaft reinforced with metal bands or bolts, and have a sharper blade, making them ideal for chopping limbs rather than wood.</p>"
                },
                "equipped": {
                    "value": true
                },
                "equippedBulk": {
                    "value": ""
                },
                "group": "axe",
                "hands": {
                    "value": ""
                },
                "hardness": {
                    "value": 0
                },
                "hp": {
                    "value": 0
                },
                "identification": {
                    "misidentified": {},
                    "status": "identified",
                    "unidentified": {
                        "data": {
                            "description": {
                                "value": ""
                            }
                        },
                        "img": "",
                        "name": ""
                    }
                },
                "invested": {
                    "value": false
                },
                "level": {
                    "value": 0
                },
                "maxHp": {
                    "value": 0
                },
                "negateBulk": {
                    "value": "0"
                },
                "potencyRune": {
                    "value": null
                },
                "preciousMaterial": {
                    "value": ""
                },
                "preciousMaterialGrade": {
                    "value": ""
                },
                "price": {
                    "value": "1 gp"
                },
                "property1": {
                    "critDamage": "",
                    "critDamageType": "",
                    "critDice": null,
                    "critDie": "",
                    "criticalConditionType": "",
                    "criticalConditionValue": null,
                    "damageType": "",
                    "dice": null,
                    "die": "",
                    "strikeConditionType": "",
                    "strikeConditionValue": null,
                    "value": ""
                },
                "propertyRune1": {
                    "value": ""
                },
                "propertyRune2": {
                    "value": ""
                },
                "propertyRune3": {
                    "value": ""
                },
                "propertyRune4": {
                    "value": ""
                },
                "quantity": {
                    "value": 1
                },
                "range": null,
                "reload": {
                    "value": ""
                },
                "rules": [],
                "size": {
                    "value": "med"
                },
                "slug": "battle-axe",
                "source": {
                    "value": "Pathfinder Core Rulebook"
                },
                "specific": {
                    "value": false
                },
                "splashDamage": {
                    "value": 0
                },
                "stackGroup": {
                    "value": ""
                },
                "strikingRune": {
                    "value": ""
                },
                "traits": {
                    "custom": "",
                    "rarity": "common",
                    "value": [
                        "sweep"
                    ]
                },
                "usage": {
                    "value": "held-in-one-hand"
                },
                "weight": {
                    "value": "1"
                }
            },
            "effects": [],
            "flags": {
                "core": {
                    "sourceId": "Compendium.pf2e.equipment-srd.War0uyLBx1jA0Ge7"
                }
            },
            "img": "systems/pf2e/icons/equipment/weapons/battle-axe.webp",
            "name": "Battle Axe",
            "sort": 100000,
            "type": "weapon"
        },
        {
            "_id": "3OZN5cIqwj9fzI2a",
            "data": {
                "MAP": {
                    "value": ""
                },
                "baseItem": "composite-shortbow",
                "bonus": {
                    "value": 0
                },
                "bonusDamage": {
                    "value": 0
                },
                "brokenThreshold": {
                    "value": 0
                },
                "bulkCapacity": {
                    "value": ""
                },
                "category": "martial",
                "collapsed": {
                    "value": false
                },
                "containerId": {
                    "value": ""
                },
                "damage": {
                    "damageType": "piercing",
                    "dice": 1,
                    "die": "d6",
                    "value": ""
                },
                "description": {
                    "value": "<p>This shortbow is made from horn, wood, and sinew laminated together to increase the power of its pull and the force of its projectile. Its compact size and power make it a favorite of mounted archers. Any time an ability is specifically restricted to a shortbow, it also applies to composite shortbows unless otherwise stated.</p>"
                },
                "equipped": {
                    "value": true
                },
                "equippedBulk": {
                    "value": ""
                },
                "group": "bow",
                "hands": {
                    "value": ""
                },
                "hardness": {
                    "value": 0
                },
                "hp": {
                    "value": 0
                },
                "identification": {
                    "misidentified": {},
                    "status": "identified",
                    "unidentified": {
                        "data": {
                            "description": {
                                "value": ""
                            }
                        },
                        "img": "",
                        "name": ""
                    }
                },
                "invested": {
                    "value": false
                },
                "level": {
                    "value": 0
                },
                "maxHp": {
                    "value": 0
                },
                "negateBulk": {
                    "value": "0"
                },
                "potencyRune": {
                    "value": null
                },
                "preciousMaterial": {
                    "value": ""
                },
                "preciousMaterialGrade": {
                    "value": ""
                },
                "price": {
                    "value": "14 gp"
                },
                "property1": {
                    "critDamage": "",
                    "critDamageType": "",
                    "critDice": null,
                    "critDie": "",
                    "criticalConditionType": "",
                    "criticalConditionValue": null,
                    "damageType": "",
                    "dice": null,
                    "die": "",
                    "strikeConditionType": "",
                    "strikeConditionValue": null,
                    "value": ""
                },
                "propertyRune1": {
                    "value": ""
                },
                "propertyRune2": {
                    "value": ""
                },
                "propertyRune3": {
                    "value": ""
                },
                "propertyRune4": {
                    "value": ""
                },
                "quantity": {
                    "value": 1
                },
                "range": 60,
                "reload": {
                    "value": ""
                },
                "rules": [],
                "size": {
                    "value": "med"
                },
                "slug": "composite-shortbow",
                "source": {
                    "value": "Pathfinder Core Rulebook"
                },
                "specific": {
                    "value": false
                },
                "splashDamage": {
                    "value": 0
                },
                "stackGroup": {
                    "value": ""
                },
                "strikingRune": {
                    "value": ""
                },
                "traits": {
                    "custom": "",
                    "rarity": "common",
                    "value": [
                        "deadly-d10",
                        "propulsive"
                    ]
                },
                "usage": {
                    "value": "held-in-one-plus-hands"
                },
                "weight": {
                    "value": "1"
                }
            },
            "effects": [],
            "flags": {
                "core": {
                    "sourceId": "Compendium.pf2e.equipment-srd.e4NwsnPnpQKbDZ9F"
                }
            },
            "img": "systems/pf2e/icons/equipment/weapons/composite-shortbow.webp",
            "name": "Composite Shortbow",
            "sort": 200000,
            "type": "weapon"
        },
        {
            "_id": "NSeOYWbzShYtyAoa",
            "data": {
                "armor": {
                    "value": 2
                },
                "baseItem": "studded-leather-armor",
                "brokenThreshold": {
                    "value": null
                },
                "bulkCapacity": {
                    "value": ""
                },
                "category": "light",
                "check": {
                    "value": -1
                },
                "collapsed": {
                    "value": false
                },
                "containerId": {
                    "value": ""
                },
                "description": {
                    "value": "<p>This leather armor is reinforced with metal studs and sometimes small metal plates, providing most of the flexibility of leather armor with more robust protection.</p>"
                },
                "dex": {
                    "value": 3
                },
                "equipped": {
                    "value": true
                },
                "equippedBulk": {
                    "value": "1"
                },
                "group": "leather",
                "hardness": {
                    "value": null
                },
                "hp": {
                    "value": null
                },
                "identification": {
                    "misidentified": {},
                    "status": "identified",
                    "unidentified": {
                        "data": {
                            "description": {
                                "value": ""
                            }
                        },
                        "img": "",
                        "name": ""
                    }
                },
                "invested": {
                    "value": false
                },
                "level": {
                    "value": 0
                },
                "maxHp": {
                    "value": null
                },
                "negateBulk": {
                    "value": "0"
                },
                "potency": {},
                "potencyRune": {
                    "value": 0
                },
                "preciousMaterial": {
                    "value": ""
                },
                "preciousMaterialGrade": {
                    "value": ""
                },
                "price": {
                    "value": "3 gp"
                },
                "propertyRune1": {
                    "value": ""
                },
                "propertyRune2": {
                    "value": ""
                },
                "propertyRune3": {
                    "value": ""
                },
                "propertyRune4": {
                    "value": ""
                },
                "quantity": {
                    "value": 1
                },
                "resiliencyRune": {
                    "value": ""
                },
                "rules": [],
                "size": {
                    "value": "med"
                },
                "slug": "studded-leather-armor",
                "source": {
                    "value": "Pathfinder Core Rulebook"
                },
                "speed": {
                    "value": 0
                },
                "stackGroup": {
                    "value": ""
                },
                "strength": {
                    "value": 12
                },
                "traits": {
                    "custom": "",
                    "rarity": "common",
                    "value": []
                },
                "usage": {
                    "value": "wornarmor"
                },
                "weight": {
                    "value": "2"
                }
            },
            "effects": [],
            "flags": {
                "core": {
                    "sourceId": "Compendium.pf2e.equipment-srd.ewQZ0VeL38v3qFnN"
                }
            },
            "img": "systems/pf2e/icons/equipment/armor/studded-leather-armor.webp",
            "name": "Studded Leather Armor",
            "sort": 300000,
            "type": "armor"
        },
        {
            "_id": "KKQGpJLMJdbeHCF2",
            "data": {
                "activation": {
                    "condition": "",
                    "cost": 0,
                    "type": ""
                },
                "autoDestroy": {
                    "_deprecated": true,
                    "value": true
                },
                "autoUse": {
                    "_deprecated": true,
                    "value": true
                },
                "baseItem": null,
                "brokenThreshold": {
                    "value": 0
                },
                "bulkCapacity": {
                    "value": ""
                },
                "charges": {
                    "_deprecated": true,
                    "max": 0,
                    "value": 0
                },
                "collapsed": {
                    "value": false
                },
                "consumableType": {
                    "value": "ammo"
                },
                "consume": {
                    "_deprecated": true,
                    "value": ""
                },
                "containerId": {
                    "value": ""
                },
                "description": {
                    "value": "<p>These projectiles are the ammunition for bows. The shaft of an arrow is made of wood. It is stabilized in flight by fletching at one end and bears a metal head on the other.</p>"
                },
                "duration": {
                    "units": "",
                    "value": null
                },
                "equipped": {
                    "value": true
                },
                "equippedBulk": {
                    "value": ""
                },
                "hardness": {
                    "value": 0
                },
                "hp": {
                    "value": 0
                },
                "identification": {
                    "misidentified": {},
                    "status": "identified",
                    "unidentified": {
                        "data": {
                            "description": {
                                "value": ""
                            }
                        },
                        "img": "",
                        "name": ""
                    }
                },
                "level": {
                    "value": 0
                },
                "maxHp": {
                    "value": 0
                },
                "negateBulk": {
                    "value": "0"
                },
                "preciousMaterial": {
                    "value": ""
                },
                "preciousMaterialGrade": {
                    "value": ""
                },
                "price": {
                    "value": "1 sp"
                },
                "quantity": {
                    "value": 20
                },
                "range": {
                    "long": null,
                    "units": "",
                    "value": null
                },
                "rules": [],
                "size": {
                    "value": "med"
                },
                "slug": "arrows",
                "source": {
                    "value": "Pathfinder Core Rulebook"
                },
                "spell": {
                    "data": null,
                    "heightenedLevel": null
                },
                "stackGroup": {
                    "value": "arrows"
                },
                "target": {
                    "type": "",
                    "units": "",
                    "value": null
                },
                "traits": {
                    "custom": "",
                    "rarity": "common",
                    "value": []
                },
                "usage": {
                    "value": "held-in-one-hand"
                },
                "uses": {
                    "autoDestroy": true,
                    "autoUse": true,
                    "max": 0,
                    "per": null,
                    "value": 0
                },
                "weight": {
                    "value": "L"
                }
            },
            "effects": [],
            "flags": {
                "core": {
                    "sourceId": "Compendium.pf2e.equipment-srd.w2ENw2VMPcsbif8g"
                }
            },
            "img": "systems/pf2e/icons/equipment/weapons/arrows.webp",
            "name": "Arrows",
            "sort": 400000,
            "type": "consumable"
        },
        {
            "_id": "uFWe6jAjZ0J95ox9",
            "data": {
                "attack": {
                    "value": ""
                },
                "attackEffects": {
                    "custom": "",
                    "value": []
                },
                "bonus": {
                    "value": 11
                },
                "damageRolls": {
                    "48vcqjclw628isrre5cg": {
                        "damage": "1d8+8",
                        "damageType": "slashing"
                    }
                },
                "description": {
                    "value": ""
                },
                "rules": [],
                "slug": null,
                "source": {
                    "value": ""
                },
                "traits": {
                    "custom": "",
                    "rarity": "common",
                    "value": [
                        "sweep"
                    ]
                },
                "weaponType": {
                    "value": "melee"
                }
            },
            "effects": [],
            "flags": {},
            "img": "systems/pf2e/icons/default-icons/melee.svg",
            "name": "Battle Axe",
            "sort": 500000,
            "type": "melee"
        },
        {
            "_id": "hCQUre41fnib5cSf",
            "data": {
                "attack": {
                    "value": ""
                },
                "attackEffects": {
                    "custom": "",
                    "value": []
                },
                "bonus": {
                    "value": 11
                },
                "damageRolls": {
                    "a3ban4ab3d82nod7jiub": {
                        "damage": "1d6+8",
                        "damageType": "slashing"
                    }
                },
                "description": {
                    "value": ""
                },
                "rules": [],
                "slug": null,
                "source": {
                    "value": ""
                },
                "traits": {
                    "custom": "",
                    "rarity": "common",
                    "value": [
                        "agile"
                    ]
                },
                "weaponType": {
                    "value": "melee"
                }
            },
            "effects": [],
            "flags": {},
            "img": "systems/pf2e/icons/default-icons/melee.svg",
            "name": "Claw",
            "sort": 600000,
            "type": "melee"
        },
        {
            "_id": "pD6a7tBQWhYfzUSt",
            "data": {
                "attack": {
                    "value": ""
                },
                "attackEffects": {
                    "custom": "",
                    "value": [
                        "werecreature-curse-of-the-werecreature"
                    ]
                },
                "bonus": {
                    "value": 11
                },
                "damageRolls": {
                    "bsbmnezmx9s0r9kpinrx": {
                        "damage": "1d8+8",
                        "damageType": "piercing"
                    }
                },
                "description": {
                    "value": ""
                },
                "rules": [],
                "slug": null,
                "source": {
                    "value": ""
                },
                "traits": {
                    "custom": "",
                    "rarity": "common",
                    "value": []
                },
                "weaponType": {
                    "value": "melee"
                }
            },
            "effects": [],
            "flags": {},
            "img": "systems/pf2e/icons/default-icons/melee.svg",
            "name": "Jaws",
            "sort": 700000,
            "type": "melee"
        },
        {
            "_id": "Imio5DQk9gfplk5I",
            "data": {
                "attack": {
                    "value": ""
                },
                "attackEffects": {
                    "custom": "",
                    "value": []
                },
                "bonus": {
                    "value": 9
                },
                "damageRolls": {
                    "5ctabued0u4etrt4eyjj": {
                        "damage": "1d6+4",
                        "damageType": "piercing"
                    }
                },
                "description": {
                    "value": ""
                },
                "rules": [],
                "slug": null,
                "source": {
                    "value": ""
                },
                "traits": {
                    "custom": "",
                    "rarity": "common",
                    "value": [
                        "deadly-d10",
                        "range-increment-60",
                        "reload-0"
                    ]
                },
                "weaponType": {
                    "value": "ranged"
                }
            },
            "effects": [],
            "flags": {},
            "img": "systems/pf2e/icons/default-icons/melee.svg",
            "name": "Composite Shortbow",
            "sort": 800000,
            "type": "melee"
        },
        {
            "_id": "MPbClVjJK4l020IS",
            "data": {
                "actionCategory": {
                    "value": "interaction"
                },
                "actionType": {
                    "value": "passive"
                },
                "actions": {
                    "value": null
                },
                "description": {
                    "value": "<p>@Localize[PF2E.NPC.Abilities.Glossary.LowLightVision]</p>"
                },
                "requirements": {
                    "value": ""
                },
                "rules": [],
                "slug": "low-light-vision",
                "source": {
                    "value": ""
                },
                "traits": {
                    "custom": "",
                    "rarity": "common",
                    "value": []
                },
                "trigger": {
                    "value": ""
                },
                "weapon": {
                    "value": ""
                }
            },
            "effects": [],
            "flags": {
                "core": {
                    "sourceId": "Compendium.pf2e.bestiary-ability-glossary-srd.fFu2sZz4KB01fVRc"
                }
            },
            "img": "systems/pf2e/icons/actions/Passive.webp",
            "name": "Low-Light Vision",
            "sort": 900000,
            "type": "action"
        },
        {
            "_id": "Re9Ws4fM67Zs7ZLW",
            "data": {
                "actionCategory": {
                    "value": "interaction"
                },
                "actionType": {
                    "value": "passive"
                },
                "actions": {
                    "value": null
                },
                "description": {
                    "value": "<p>@Localize[PF2E.NPC.Abilities.Glossary.Scent]</p>"
                },
                "requirements": {
                    "value": ""
                },
                "rules": [],
                "slug": "scent",
                "source": {
                    "value": ""
                },
                "traits": {
                    "custom": "",
                    "rarity": "common",
                    "value": []
                },
                "trigger": {
                    "value": ""
                },
                "weapon": {
                    "value": ""
                }
            },
            "effects": [],
            "flags": {
                "core": {
                    "sourceId": "Compendium.pf2e.bestiary-ability-glossary-srd.rqfnQ5VHT5hxm25r"
                }
            },
            "img": "systems/pf2e/icons/actions/Passive.webp",
            "name": "Scent (Imprecise) 30 feet",
            "sort": 1000000,
            "type": "action"
        },
        {
            "_id": "ii0tl0zE2tEgfPD4",
            "data": {
                "actionCategory": {
                    "value": "interaction"
                },
                "actionType": {
                    "value": "passive"
                },
                "actions": {
                    "value": null
                },
                "description": {
                    "value": "<p>A werewolf can communicate with lupins.</p>"
                },
                "requirements": {
                    "value": ""
                },
                "rules": [],
                "slug": "werecreature-animal-empathy",
                "source": {
                    "value": "Pathfinder Bestiary"
                },
                "traits": {
                    "custom": "",
                    "rarity": "common",
                    "value": [
                        "divination",
                        "primal"
                    ]
                },
                "trigger": {
                    "value": ""
                },
                "weapon": {
                    "value": ""
                }
            },
            "effects": [],
            "flags": {
                "core": {
                    "sourceId": "Compendium.pf2e.bestiary-family-ability-glossary.iAXHLkxuuCUOwqkN"
                }
            },
            "img": "systems/pf2e/icons/actions/Passive.webp",
            "name": "Wolf Empathy",
            "sort": 1100000,
            "type": "action"
        },
        {
            "_id": "62IVWtvdiJi9PSZ1",
            "data": {
                "actionCategory": {
                    "value": "defensive"
                },
                "actionType": {
                    "value": "reaction"
                },
                "actions": {
                    "value": null
                },
                "description": {
                    "value": "<p>@Localize[PF2E.NPC.Abilities.Glossary.AttackOfOpportunity]</p>"
                },
                "requirements": {
                    "value": ""
                },
                "rules": [],
                "slug": "attack-of-opportunity",
                "source": {
                    "value": ""
                },
                "traits": {
                    "custom": "",
                    "rarity": "common",
                    "value": []
                },
                "trigger": {
                    "value": ""
                },
                "weapon": {
                    "value": ""
                }
            },
            "effects": [],
            "flags": {
                "core": {
                    "sourceId": "Compendium.pf2e.bestiary-ability-glossary-srd.hFtNbo1LKYCoDy2O"
                }
            },
            "img": "systems/pf2e/icons/actions/Reaction.webp",
            "name": "Attack of Opportunity",
            "sort": 1200000,
            "type": "action"
        },
        {
            "_id": "oXq7JKUPh72N7tPy",
            "data": {
                "actionCategory": {
                    "value": "offensive"
                },
                "actionType": {
                    "value": "action"
                },
                "actions": {
                    "value": 1
                },
                "description": {
                    "value": "<ul>\n<li><strong>Human</strong>\n<ul>\n<li><strong>Melee</strong> fist [[/r 1d20+11 #Fist]]{+11}/[[/r 1d20+6 #Fist]]{+6}/[[/r 1d20+1 #Fist]]{+1} (agile, nonlethal), <strong>Damage</strong> [[/r {1d4+8}[bludgeoning]]]{1d4+8 bludgeoning damage}</li>\n</ul>\n</li>\n<li><strong>Wolf</strong>\n<ul>\n<li><strong>Speed</strong> 40 feet</li>\n<li><strong>Melee</strong> jaws[[/r 1d20+11 #Jaws]]{+11}/[[/r 1d20+6 #Jaws]]{+6}/[[/r 1d20+1 #Jaws]]{+1}, <strong>Damage</strong> [[/r {1d8+8}[piercing]]]{1d8+8 piercing damage} plus @Compendium[pf2e.bestiary-ability-glossary-srd.Knockdown]{Knockdown}</li>\n</ul>\n</li>\n</ul>\n<hr />\n<p>The werecreature changes into its humanoid, hybrid, or animal shape. Each shape has a specific, persistent appearance. A true werecreature's natural form is its hybrid shape.</p>\n<p>In humanoid shape, the werecreature uses its original humanoid size, loses its jaws and claws Strikes, and gains a melee fist Strike that deals bludgeoning damage equal to the slashing damage dealt by its claw.</p>\n<p>In animal shape, its Speed and size change to that of the animal, it gains any special Strike effects of the animal that it didn't already have (such as Grab), and it loses its weapon Strikes.</p>\n<hr />\n<p>@Localize[PF2E.NPC.Abilities.Glossary.ChangeShape]</p>"
                },
                "requirements": {
                    "value": ""
                },
                "rules": [],
                "slug": "werecreature-change-shape",
                "source": {
                    "value": "Pathfinder Bestiary"
                },
                "traits": {
                    "custom": "",
                    "rarity": "common",
                    "value": [
                        "concentrate",
                        "polymorph",
                        "primal",
                        "transmutation"
                    ]
                },
                "trigger": {
                    "value": ""
                },
                "weapon": {
                    "value": ""
                }
            },
            "effects": [],
            "flags": {
                "core": {
                    "sourceId": "Compendium.pf2e.bestiary-family-ability-glossary.08egiRxOvMX97XTc"
                }
            },
            "img": "systems/pf2e/icons/actions/OneAction.webp",
            "name": "Change Shape",
            "sort": 1300000,
            "type": "action"
        },
        {
            "_id": "Xmaw18x2qDwDq7tB",
            "data": {
                "actionCategory": {
                    "value": "offensive"
                },
                "actionType": {
                    "value": "passive"
                },
                "actions": {
                    "value": null
                },
                "description": {
                    "value": "<p>This curse affects only humanoids.</p>\n<p><strong>Saving Throw</strong> @Check[type:fortitude|dc:19]</p>\n<hr />\n<p>On each full moon, the cursed creature must succeed at another Fortitude save or turn into a werewolf until dawn.</p>\n<p>The creature is under the GM's control and goes on a rampage for half the night before falling unconscious until dawn.</p>"
                },
                "requirements": {
                    "value": ""
                },
                "rules": [],
                "slug": "werecreature-curse-of-the-werecreature",
                "source": {
                    "value": "Pathfinder Bestiary"
                },
                "traits": {
                    "custom": "",
                    "rarity": "common",
                    "value": [
                        "curse",
                        "necromancy",
                        "primal"
                    ]
                },
                "trigger": {
                    "value": ""
                },
                "weapon": {
                    "value": ""
                }
            },
            "effects": [],
            "flags": {
                "core": {
                    "sourceId": "Compendium.pf2e.bestiary-family-ability-glossary.ICnpftxZEilrYjn0"
                }
            },
            "img": "systems/pf2e/icons/actions/Passive.webp",
            "name": "Curse of the Werewolf",
            "sort": 1400000,
            "type": "action"
        },
        {
            "_id": "y22Jw3B6gV1YXd2p",
            "data": {
                "actionCategory": {
                    "value": "offensive"
                },
                "actionType": {
                    "value": "passive"
                },
                "actions": {
                    "value": null
                },
                "description": {
                    "value": "<p>When a full moon appears in the night sky, the werecreature must enter hybrid form, can't Change Shape thereafter, becomes one size larger, increases its reach by 5 feet, and increases the damage of its jaws Strike by 2.</p>\n<p>When the moon sets or the sun rises, the werecreature returns to humanoid form and is @Compendium[pf2e.conditionitems.Fatigued]{Fatigued} for [[/br 2d4 #Fatigued duration]]{2d4 hours}.</p>\n<hr />\n<p>@Compendium[pf2e.bestiary-effects.Effect: Moon Frenzy]{Effect: Moon Frenzy}</p>"
                },
                "requirements": {
                    "value": ""
                },
                "rules": [],
                "slug": "werecreature-moon-frenzy",
                "source": {
                    "value": "Pathfinder Bestiary"
                },
                "traits": {
                    "custom": "",
                    "rarity": "common",
                    "value": [
                        "polymorph",
                        "primal",
                        "transmutation"
                    ]
                },
                "trigger": {
                    "value": ""
                },
                "weapon": {
                    "value": ""
                }
            },
            "effects": [],
            "flags": {
                "core": {
                    "sourceId": "Compendium.pf2e.bestiary-family-ability-glossary.FA0ri2fAcMa1HgZe"
                }
            },
            "img": "systems/pf2e/icons/actions/Passive.webp",
            "name": "Moon Frenzy",
            "sort": 1500000,
            "type": "action"
        },
        {
            "_id": "I5zNTSZyjvhCKz3D",
            "data": {
                "actionCategory": {
                    "value": "offensive"
                },
                "actionType": {
                    "value": "passive"
                },
                "actions": {
                    "value": null
                },
                "description": {
                    "value": "<p>The werewolf's Strikes deal [[/r {1d6}]]{1d6 extra damage} to creatures within reach of at least two of the werewolf's allies.</p>"
                },
                "requirements": {
                    "value": ""
                },
                "rules": [
                    {
                        "key": "ToggleProperty",
                        "property": "flags.pf2e.rollOptions.damage-roll.packAttack"
                    },
                    {
                        "diceNumber": 1,
                        "dieSize": "d6",
                        "key": "DamageDice",
                        "predicate": {
                            "all": [
                                "packAttack"
                            ]
                        },
                        "selector": "damage"
                    }
                ],
                "slug": null,
                "source": {
                    "value": ""
                },
                "traits": {
                    "custom": "",
                    "rarity": "common",
                    "value": []
                },
                "trigger": {
                    "value": ""
                },
                "weapon": {
                    "value": ""
                }
            },
            "effects": [],
            "flags": {},
            "img": "systems/pf2e/icons/actions/Passive.webp",
            "name": "Pack Attack",
            "sort": 1600000,
            "type": "action"
        },
        {
            "_id": "lV7mcwZMRSUFbUoL",
            "data": {
                "description": {
                    "value": ""
                },
                "mod": {
                    "value": 7
                },
                "proficient": {
                    "value": 0
                },
                "rules": [],
                "slug": null,
                "source": {
                    "value": ""
                },
                "traits": {
                    "custom": "",
                    "rarity": "common",
                    "value": []
                }
            },
            "effects": [],
            "flags": {},
            "img": "systems/pf2e/icons/default-icons/lore.svg",
            "name": "Acrobatics",
            "sort": 1700000,
            "type": "lore"
        },
        {
            "_id": "mOzOXq2m381Plahg",
            "data": {
                "description": {
                    "value": ""
                },
                "mod": {
                    "value": 9
                },
                "proficient": {
                    "value": 0
                },
                "rules": [],
                "slug": null,
                "source": {
                    "value": ""
                },
                "traits": {
                    "custom": "",
                    "rarity": "common",
                    "value": []
                }
            },
            "effects": [],
            "flags": {},
            "img": "systems/pf2e/icons/default-icons/lore.svg",
            "name": "Athletics",
            "sort": 1800000,
            "type": "lore"
        },
        {
            "_id": "V1jxaS3c08CVXlLE",
            "data": {
                "description": {
                    "value": ""
                },
                "mod": {
                    "value": 10
                },
                "proficient": {
                    "value": 0
                },
                "rules": [],
                "slug": null,
                "source": {
                    "value": ""
                },
                "traits": {
                    "custom": "",
                    "rarity": "common",
                    "value": []
                }
            },
            "effects": [],
            "flags": {},
            "img": "systems/pf2e/icons/default-icons/lore.svg",
            "name": "Stealth",
            "sort": 1900000,
            "type": "lore"
        }
    ],
    "name": "Werewolf",
    "token": {
        "disposition": -1,
        "height": 1,
        "img": "systems/pf2e/icons/default-icons/npc.svg",
        "name": "Werewolf",
        "width": 1
    },
    "type": "npc"
}
