{
    "_id": "s5mS7CyE0oOYlecv",
    "data": {
        "badge": null,
        "description": {
            "value": "<p>The creature takes a –4 status penalty to its damage rolls.</p>"
        },
        "duration": {
            "expiry": "turn-start",
            "sustained": false,
            "unit": "unlimited",
            "value": -1
        },
        "level": {
            "value": 5
        },
        "rules": [
            {
                "key": "FlatModifier",
                "selector": "damage",
                "type": "status",
                "value": -4
            }
        ],
        "source": {
            "value": "Pathfinder Bestiary"
        },
        "start": {
            "initiative": null,
            "value": 0
        },
        "target": null,
        "tokenIcon": {
            "show": true
        },
        "traits": {
            "custom": "",
            "rarity": "common",
            "value": []
        }
    },
    "effects": [],
    "flags": {},
    "img": "systems/pf2e/icons/equipment/worn-items/other-worn-items/hat-of-the-magi.webp",
    "name": "Effect: Lost Red Cap",
    "type": "effect"
}
