{
    "_id": "GstmxSP75eKmHtCQ",
    "data": {
        "badge": null,
        "description": {
            "value": "<p>The creature takes a -2 status penalty to Perception checks and saves against mental effects.</p>"
        },
        "duration": {
            "expiry": "turn-start",
            "sustained": false,
            "unit": "hours",
            "value": 4
        },
        "level": {
            "value": 1
        },
        "rules": [
            {
                "key": "FlatModifier",
                "selector": "perception",
                "type": "status",
                "value": -2
            },
            {
                "key": "FlatModifier",
                "predicate": {
                    "all": [
                        "mental"
                    ]
                },
                "selector": "saving-throw",
                "type": "status",
                "value": -2
            }
        ],
        "source": {
            "value": "Pathfinder #151: The Show Must Go On"
        },
        "start": {
            "initiative": null,
            "value": 0
        },
        "target": null,
        "tokenIcon": {
            "show": true
        },
        "traits": {
            "custom": "",
            "rarity": "common",
            "value": []
        }
    },
    "effects": [],
    "flags": {},
    "img": "systems/pf2e/icons/spells/cloudkill.webp",
    "name": "Effect: Hallucinogenic Pollen (Failure)",
    "type": "effect"
}
