{
    "_id": "mFnSXW6HTwS7Iu1k",
    "data": {
        "badge": null,
        "description": {
            "value": "<p>The creature takes a -2 circumstance penalty to Survival checks to avoid getting lost.</p>"
        },
        "duration": {
            "expiry": "turn-start",
            "sustained": false,
            "unit": "minutes",
            "value": 1
        },
        "level": {
            "value": 4
        },
        "rules": [
            {
                "key": "FlatModifier",
                "label": "PF2E.NPCAbility.HuntedFear.Survival",
                "predicate": {
                    "all": [
                        "action:sense-direction"
                    ]
                },
                "selector": "survival",
                "type": "circumstance",
                "value": -2
            }
        ],
        "source": {
            "value": "Pathfinder Bestiary"
        },
        "start": {
            "initiative": null,
            "value": 0
        },
        "target": null,
        "tokenIcon": {
            "show": true
        },
        "traits": {
            "custom": "",
            "rarity": "common",
            "value": []
        }
    },
    "effects": [],
    "flags": {},
    "img": "systems/pf2e/icons/spells/fear.webp",
    "name": "Effect: Hunted Fear",
    "type": "effect"
}
