{
    "_id": "u3l38345DtCb1zrg",
    "content": "<p>Play after a foe hit you with a Strike.</p>\n<hr />\n<p>If the foe rolled a critical success, it gets a success instead. If the foe rolled a success, it deals minimum damage instead of rolling for damage.</p>",
    "flags": {},
    "name": "Grazing Blow",
    "permission": {
        "default": 0
    }
}
